Konst_Stuff/MIPS_FULL_v2 /mips_mini_tb.vcd
$date
	Tue Dec 14 05:07:23 2021
$end
$version
	Icarus Verilog
$end
$timescale
	1s
$end
$scope module mips_mini_tb $end
$var wire 32 ! writedata [31:0] $end
$var wire 1 " write $end
$var wire 32 # register_v0 [31:0] $end
$var wire 1 $ read $end
$var wire 4 % byteenable [3:0] $end
$var wire 32 & address [31:0] $end
$var wire 1 ' active $end
$var reg 1 ( clk $end
$var reg 32 ) readdata [31:0] $end
$var reg 1 * reset $end
$var reg 1 + waitrequest $end
$scope module dut $end
$var wire 4 , byteenable [3:0] $end
$var wire 1 ( clk $end
$var wire 32 - readdata [31:0] $end
$var wire 1 * reset $end
$var wire 1 + waitrequest $end
$var wire 32 . writedata [31:0] $end
$var wire 1 " write $end
$var wire 1 / waitreq_sync $end
$var wire 1 0 waitreq_relev $end
$var wire 1 1 waitreq_plus $end
$var wire 26 2 target [25:0] $end
$var wire 2 3 state [1:0] $end
$var wire 5 4 shamt [4:0] $end
$var wire 5 5 rt [4:0] $end
$var wire 5 6 rs [4:0] $end
$var wire 32 7 regstore [31:0] $end
$var wire 32 8 register_v0 [31:0] $end
$var wire 32 9 register_t [31:0] $end
$var wire 1 $ read $end
$var wire 5 : rd [4:0] $end
$var wire 32 ; pc [31:0] $end
$var wire 6 < opcode [5:0] $end
$var wire 32 = op2 [31:0] $end
$var wire 32 > op1 [31:0] $end
$var wire 32 ? mem_addr_init [31:0] $end
$var wire 32 @ lo [31:0] $end
$var wire 32 A immediate_ext [31:0] $end
$var wire 16 B immediate [15:0] $end
$var wire 64 C hilo [63:0] $end
$var wire 32 D hi [31:0] $end
$var wire 6 E func [5:0] $end
$var wire 4 F byteenable_log [3:0] $end
$var wire 4 G branch_cond [3:0] $end
$var wire 32 H address [31:0] $end
$var wire 1 ' active $end
$var wire 32 I RAMDout_2 [31:0] $end
$var wire 32 J ALUout [31:0] $end
$scope module ALU $end
$var wire 1 ( clk $end
$var wire 1 * reset $end
$var wire 1 0 waitrequest $end
$var wire 2 K state [1:0] $end
$var wire 32 L shift_out [31:0] $end
$var wire 5 M shamt [4:0] $end
$var wire 6 N opcode [5:0] $end
$var wire 32 O op2 [31:0] $end
$var wire 32 P op1 [31:0] $end
$var wire 32 Q lo [31:0] $end
$var wire 64 R hilo [63:0] $end
$var wire 32 S hi [63:32] $end
$var wire 6 T funct [5:0] $end
$var wire 4 U branch_conditions [3:0] $end
$var wire 1 V als_shift $end
$var wire 32 W als_out [31:0] $end
$var wire 1 ' active $end
$var reg 32 X alu_out [31:0] $end
$scope module asl $end
$var wire 32 Y and_res [31:0] $end
$var wire 32 Z or_res [31:0] $end
$var wire 32 [ xor_res [31:0] $end
$var wire 32 \ sub_res [31:0] $end
$var wire 6 ] opcode [5:0] $end
$var wire 32 ^ op2 [31:0] $end
$var wire 32 _ op1 [31:0] $end
$var wire 6 ` funct [5:0] $end
$var wire 32 a add_res [31:0] $end
$var reg 32 b add_sub_out [31:0] $end
$var reg 4 c branch_conditions [3:0] $end
$upscope $end
$scope module mdb $end
$var wire 1 ( clk $end
$var wire 1 * reset $end
$var wire 32 d ua [31:0] $end
$var wire 32 e ub [31:0] $end
$var wire 1 0 waitrequest $end
$var wire 2 f state [1:0] $end
$var wire 33 g sr [32:0] $end
$var wire 33 h sq [32:0] $end
$var wire 64 i sm [63:0] $end
$var wire 32 j sb [31:0] $end
$var wire 32 k sa [31:0] $end
$var wire 33 l r [32:0] $end
$var wire 33 m q [32:0] $end
$var wire 6 n opcode [5:0] $end
$var wire 32 o op2 [31:0] $end
$var wire 32 p op1 [31:0] $end
$var wire 64 q m [63:0] $end
$var wire 64 r hilo [63:0] $end
$var wire 6 s func [5:0] $end
$var wire 1 ' active $end
$var reg 32 t hi [63:32] $end
$var reg 32 u lo [31:0] $end
$upscope $end
$scope module shift $end
$var wire 3 v type_shift [2:0] $end
$var wire 32 w shamt32 [31:0] $end
$var wire 5 x shamt [4:0] $end
$var wire 32 y right_logical [31:0] $end
$var wire 32 z right_arithmetic [31:0] $end
$var wire 1 { reg_imm $end
$var wire 6 | opcode [5:0] $end
$var wire 32 } op2 [31:0] $end
$var wire 32 ~ op1 [31:0] $end
$var wire 32 !" left_logical [31:0] $end
$var wire 6 "" funct [5:0] $end
$var reg 32 #" sa [31:0] $end
$var reg 32 $" shift_out [31:0] $end
$upscope $end
$upscope $end
$scope module fsm $end
$var wire 1 ( clk $end
$var wire 1 * reset $end
$var wire 1 0 wait_req $end
$var wire 6 %" opcode [5:0] $end
$var wire 32 &" mem_address [31:0] $end
$var reg 1 ' active $end
$var reg 2 '" state [1:0] $end
$upscope $end
$scope module instr $end
$var wire 1 ( clk $end
$var wire 32 (" mem_input [31:0] $end
$var wire 1 * reset $end
$var wire 2 )" state [1:0] $end
$var wire 1 / waitreq_sync $end
$var wire 1 0 waitreq_relev $end
$var wire 1 1 waitreq_plus $end
$var wire 26 *" t_target [25:0] $end
$var wire 5 +" t_shamt [4:0] $end
$var wire 5 ," t_rt [4:0] $end
$var wire 5 -" t_rs [4:0] $end
$var wire 5 ." t_rd [4:0] $end
$var wire 6 /" t_op [5:0] $end
$var wire 16 0" t_immediate [15:0] $end
$var wire 6 1" t_func [5:0] $end
$var wire 3 2" op_msbs [2:0] $end
$var wire 26 3" m_target [25:0] $end
$var wire 5 4" m_shamt [4:0] $end
$var wire 5 5" m_rt [4:0] $end
$var wire 5 6" m_rs [4:0] $end
$var wire 5 7" m_rd [4:0] $end
$var wire 6 8" m_op [5:0] $end
$var wire 16 9" m_immediate [15:0] $end
$var wire 6 :" m_func [5:0] $end
$var reg 6 ;" func [5:0] $end
$var reg 16 <" immediate [15:0] $end
$var reg 32 =" instr [31:0] $end
$var reg 6 >" op [5:0] $end
$var reg 5 ?" rd [4:0] $end
$var reg 5 @" rs [4:0] $end
$var reg 5 A" rt [4:0] $end
$var reg 5 B" shamt [4:0] $end
$var reg 26 C" target [25:0] $end
$var reg 1 D" waitreq_offset $end
$upscope $end
$scope module mdec $end
$var wire 1 ' active $end
$var wire 1 ( clk $end
$var wire 32 E" data_in [31:0] $end
$var wire 6 F" op [5:0] $end
$var wire 1 * reset $end
$var wire 1 0 waitrequest $end
$var wire 8 G" rt_byte3 [7:0] $end
$var wire 8 H" rt_byte2 [7:0] $end
$var wire 8 I" rt_byte1 [7:0] $end
$var wire 8 J" rt_byte0 [7:0] $end
$var wire 32 K" rt [31:0] $end
$var wire 4 L" byteenable [3:0] $end
$var wire 1 M" byte3_msb $end
$var wire 8 N" byte3 [7:0] $end
$var wire 1 O" byte2_msb $end
$var wire 8 P" byte2 [7:0] $end
$var wire 1 Q" byte1_msb $end
$var wire 8 R" byte1 [7:0] $end
$var wire 1 S" byte0_msb $end
$var wire 8 T" byte0 [7:0] $end
$var reg 4 U" be_signal [3:0] $end
$var reg 32 V" data_out [31:0] $end
$upscope $end
$scope module mint $end
$var wire 32 W" cpu_out [31:0] $end
$var wire 6 X" func [5:0] $end
$var wire 6 Y" op [5:0] $end
$var wire 5 Z" rt [4:0] $end
$var wire 32 [" mem_addr [31:0] $end
$var wire 4 \" byteenable [3:0] $end
$var wire 2 ]" byte_idx [1:0] $end
$var reg 1 ^" byte0 $end
$var reg 1 _" byte1 $end
$var reg 1 `" byte2 $end
$var reg 1 a" byte3 $end
$var reg 2 b" instr_type [1:0] $end
$upscope $end
$scope module progc $end
$var wire 1 ' active $end
$var wire 1 ( clk $end
$var wire 4 c" control [3:0] $end
$var wire 6 d" funct [5:0] $end
$var wire 16 e" offset [15:0] $end
$var wire 6 f" opcode [5:0] $end
$var wire 5 g" rd [4:0] $end
$var wire 1 * reset $end
$var wire 5 h" rt [4:0] $end
$var wire 5 i" sa [4:0] $end
$var wire 2 j" state [1:0] $end
$var wire 26 k" target [25:0] $end
$var wire 1 0 waitrequest $end
$var wire 32 l" rs_data [31:0] $end
$var wire 32 m" regstore [31:0] $end
$var wire 32 n" pc_inc [31:0] $end
$var reg 1 o" delayflag $end
$var reg 32 p" dest [31:0] $end
$var reg 32 q" pc [31:0] $end
$upscope $end
$scope module regf $end
$var wire 32 r" ALUout [31:0] $end
$var wire 32 s" PC [31:0] $end
$var wire 32 t" RAMDout [31:0] $end
$var wire 1 u" RegWriteEN $end
$var wire 1 ' active $end
$var wire 1 ( clk $end
$var wire 6 v" func [5:0] $end
$var wire 32 w" hi [31:0] $end
$var wire 32 x" immed [31:0] $end
$var wire 32 y" lo [31:0] $end
$var wire 6 z" opcode [5:0] $end
$var wire 5 {" rd [4:0] $end
$var wire 32 |" reg_tout [31:0] $end
$var wire 1 * reset $end
$var wire 5 }" rs [4:0] $end
$var wire 5 ~" rt [4:0] $end
$var wire 2 !# state [1:0] $end
$var wire 1 0 waitrequest $end
$var wire 32 "# register_v0 [31:0] $end
$var wire 32 ## reg_t [31:0] $end
$var wire 32 $# op2 [31:0] $end
$var wire 32 %# op1 [31:0] $end
$var wire 32 &# hi_or_lo [31:0] $end
$var wire 5 '# Write_register [4:0] $end
$var wire 32 (# Write_data [31:0] $end
$var wire 1 )# RegWrite $end
$var wire 1 *# Enable $end
$scope module m $end
$var wire 32 +# Read_data_1 [31:0] $end
$var wire 32 ,# Read_data_2 [31:0] $end
$var wire 5 -# Read_register_1 [4:0] $end
$var wire 5 .# Read_register_2 [4:0] $end
$var wire 1 u" RegWrite $end
$var wire 32 /# Write_data [31:0] $end
$var wire 5 0# Write_register [4:0] $end
$var wire 1 ( clk $end
$var wire 32 1# register_v0 [31:0] $end
$var wire 1 * reset $end
$var integer 32 2# i [31:0] $end
$upscope $end
$upscope $end
$scope module sf $end
$var wire 32 3# data_in [31:0] $end
$var wire 6 4# op [5:0] $end
$var reg 8 5# byte3 [7:0] $end
$var reg 32 6# data_out [31:0] $end
$var reg 16 7# halfword [15:0] $end
$upscope $end
$scope module wreq $end
$var wire 1 ( clk $end
$var wire 6 8# opcode [5:0] $end
$var wire 2 9# state [1:0] $end
$var wire 1 1 waitreq_plus $end
$var wire 1 0 waitreq_relev $end
$var wire 1 / waitreq_sync $end
$var wire 1 + waitrequest $end
$var reg 1 :# waitreqplus $end
$upscope $end
$upscope $end
$upscope $end
$enddefinitions $end
#0
$dumpvars
x:#
bx 9#
b0 8#
bx 7#
bx 6#
bx 5#
b0 4#
b0 3#
b100000 2#
b10100 1#
b0 0#
b0 /#
b0 .#
b0 -#
b0 ,#
b0 +#
x*#
1)#
b0 (#
b0 '#
bx &#
b0 %#
b0 $#
b0 ##
b10100 "#
bx !#
b0 ~"
b0 }"
b0 |"
b0 {"
b0 z"
bx y"
b0 x"
bx w"
b0 v"
xu"
bx t"
bx s"
b0 r"
bx q"
bx p"
0o"
bx n"
bx m"
b0 l"
b0 k"
bx j"
b0 i"
b0 h"
b0 g"
b0 f"
b0 e"
b0 d"
b1010 c"
b0 b"
1a"
1`"
1_"
1^"
bx ]"
b1111 \"
bx ["
b0 Z"
b0 Y"
b0 X"
bx W"
bx V"
bx U"
bx T"
xS"
bx R"
xQ"
bx P"
xO"
bx N"
xM"
b1111 L"
b0 K"
b0 J"
b0 I"
b0 H"
b0 G"
b0 F"
bx E"
xD"
b0 C"
b0 B"
b0 A"
b0 @"
b0 ?"
b0 >"
bx ="
b0 <"
b0 ;"
bx :"
bx 9"
bx 8"
bx 7"
bx 6"
bx 5"
bx 4"
bx 3"
b0 2"
bx 1"
bx 0"
bx /"
bx ."
bx -"
bx ,"
bx +"
bx *"
bx )"
bx ("
bx '"
bx &"
b0 %"
b0 $"
b0 #"
b0 ""
b0 !"
b0 ~
b0 }
b0 |
0{
b0 z
b0 y
b0 x
b0 w
b0 v
bx u
bx t
b0 s
bx r
b0 q
b0 p
b0 o
b0 n
bx m
bx l
b0 k
b0 j
b0 i
bx h
bx g
bx f
b0 e
b0 d
b1010 c
bx b
b0 a
b0 `
b0 _
b0 ^
b0 ]
b0 \
b0 [
b0 Z
b0 Y
b0 X
bx W
0V
b1010 U
b0 T
bx S
bx R
bx Q
b0 P
b0 O
b0 N
b0 M
b0 L
bx K
b0 J
bx I
bx H
b1010 G
b1111 F
b0 E
bx D
bx C
b0 B
b0 A
bx @
bx ?
b0 >
b0 =
b0 <
bx ;
b0 :
b0 9
b10100 8
bx 7
b0 6
b0 5
b0 4
bx 3
b0 2
x1
00
x/
bx .
bx -
b1111 ,
0+
1*
bx )
0(
1'
bx &
b1111 %
x$
b10100 #
0"
bx !
$end
#2
0u"
0*#
1$
b10111111110000000000000000000000 &
b10111111110000000000000000000000 H
b10111111110000000000000000000000 ["
b0 ]"
0/
b0 /"
b0 -"
b0 ,"
b0 ."
b0 +"
b0 1"
b0 0"
b0 *"
b0 &#
b10111111110000000000000000000000 ?
b10111111110000000000000000000000 W"
01
0:#
b0 ="
b0 #
b0 8
b0 "#
b0 1#
b0 @
b0 Q
b0 u
b0 y"
b0 C
b0 R
b0 r
b0 D
b0 S
b0 t
b0 w"
b0 p"
b10111111110000000000000000000100 n"
b10111111110000000000000000001000 7
b10111111110000000000000000001000 m"
b10111111110000000000000000001000 s"
b10111111110000000000000000000000 ;
b10111111110000000000000000000000 &"
b10111111110000000000000000000000 q"
b0 U"
b0 3
b0 K
b0 f
b0 '"
b0 )"
b0 j"
b0 !#
b0 9#
b100000 2#
1(
#4
b111 W
b111 b
b0 h
b0 g
b0 l
b0 m
b10 '#
b10 0#
1)#
1a"
1`"
1_"
b1111 %
b1111 ,
b1111 F
b1111 L"
b1111 \"
1^"
b10 b"
b10001100001000100000000000000111 I
b10001100001000100000000000000111 V"
b10001100001000100000000000000111 t"
b10001100001000100000000000000111 (#
b10001100001000100000000000000111 /#
b111 v
1{
0V
b111 e
b111 =
b111 O
b111 ^
b111 j
b111 o
b111 }
b111 $#
b0 G"
b0 H"
b0 I"
b0 J"
b111 [
b111 Z
b111 L
b111 $"
b111 !"
b111 y
b111 z
b0 #"
b1 2"
b111 J
b111 X
b111 r"
b10 G
b10 U
b10 c
b10 c"
b100011 8"
b1 6"
b10 5"
b0 7"
b0 4"
b111 :"
b111 9"
b1000100000000000000111 3"
b10001100 T"
b100010 R"
b0 P"
b111 N"
1S"
0Q"
0O"
0M"
b1000100000000000000111 2
b1000100000000000000111 C"
b1000100000000000000111 k"
b111 A
b111 x"
b111 B
b111 <"
b111 e"
b111 E
b111 T
b111 `
b111 s
b111 ""
b111 ;"
b111 X"
b111 d"
b111 v"
b0 w
b0 4
b0 M
b0 x
b0 B"
b0 i"
b0 9
b0 K"
b0 |"
b0 3#
b0 ##
b0 ,#
b10 5
b10 A"
b10 Z"
b10 h"
b10 ~"
b10 .#
b0 :
b0 ?"
b0 g"
b0 {"
b0 i
b0 q
b0 d
b11111111111111111111111111111001 \
b111 a
b0 >
b0 P
b0 _
b0 k
b0 p
b0 ~
b0 l"
b0 %#
b0 +#
b1 6
b1 @"
b1 }"
b1 -#
b100011 <
b100011 N
b100011 ]
b100011 n
b100011 |
b100011 %"
b100011 >"
b100011 F"
b100011 Y"
b100011 f"
b100011 z"
b100011 4#
b100011 8#
b10001100001000100000000000000111 )
b10001100001000100000000000000111 -
b10001100001000100000000000000111 ("
b10001100001000100000000000000111 E"
0(
0*
#6
1a"
1`"
1_"
b1111 %
b1111 ,
b1111 F
b1111 L"
b1111 \"
1^"
1$
b11 ]"
b100 &
b100 H
b100 ["
b111 ?
b111 W"
b1 3
b1 K
b1 f
b1 '"
b1 )"
b1 j"
b1 !#
b1 9#
b1111 U"
1/
10
1+
1(
#8
0(
#10
0u"
0*#
1$
b11 ]"
b10001100001000100000000000000111 (#
b10001100001000100000000000000111 /#
10
b100 &
b100 H
b100 ["
b111 ?
b111 W"
b10 '#
b10 0#
b111 J
b111 X
b111 r"
1a"
1`"
1_"
b1111 %
b1111 ,
b1111 F
b1111 L"
b1111 \"
1^"
b111 [
b111 Z
b10 G
b10 U
b10 c
b10 c"
b111 W
b111 b
b111 L
b111 $"
b111 z
b111 y
b111 !"
b0 h
b0 g
b0 l
b0 m
b111 e
b11111111111111111111111111111001 \
b111 a
b111 =
b111 O
b111 ^
b111 j
b111 o
b111 }
b111 $#
b111 v
1{
b1 2"
b10 b"
b100011 /"
b1 -"
b10 ,"
b111 1"
b111 0"
b1000100000000000000111 *"
b1000100000000000000111 2
b1000100000000000000111 C"
b1000100000000000000111 k"
b111 A
b111 x"
b111 B
b111 <"
b111 e"
b111 E
b111 T
b111 `
b111 s
b111 ""
b111 ;"
b111 X"
b111 d"
b111 v"
b10 5
b10 A"
b10 Z"
b10 h"
b10 ~"
b10 .#
b1 6
b1 @"
b1 }"
b1 -#
b100011 <
b100011 N
b100011 ]
b100011 n
b100011 |
b100011 %"
b100011 >"
b100011 F"
b100011 Y"
b100011 f"
b100011 z"
b100011 4#
b100011 8#
11
1:#
b10001100001000100000000000000111 ="
1D"
1(
#12
b1000101 (#
b1000101 /#
b1000101 I
b1000101 V"
b1000101 t"
b0 8"
b0 6"
b0 5"
b1 4"
b101 :"
b1000101 9"
b1000101 3"
b0 T"
b0 R"
b1000101 N"
0S"
00
b1000101 )
b1000101 -
b1000101 ("
b1000101 E"
0+
0(
#14
1u"
1*#
0$
0/
b10 3
b10 K
b10 f
b10 '"
b10 )"
b10 j"
b10 !#
b10 9#
01
0:#
1(
#16
0(
#18
0u"
0*#
b111 (#
b111 /#
b1010 G
b1010 U
b1010 c
b1010 c"
bx h
bx g
bx l
bx m
b0 '#
b0 0#
1$
b0 [
b0 Z
b0 ]"
b0 z
b0 y
b0 !"
b0 e
b0 \
b0 a
b0 =
b0 O
b0 ^
b0 j
b0 o
b0 }
b0 $#
b101 v
b0 2"
b0 b"
b10111111110000000000000000000100 &
b10111111110000000000000000000100 H
b10111111110000000000000000000100 ["
b10111111110000000000000000000100 ?
b10111111110000000000000000000100 W"
b1000101 2
b1000101 C"
b1000101 k"
b1000101 A
b1000101 x"
b1000101 B
b1000101 <"
b1000101 e"
b101 E
b101 T
b101 `
b101 s
b101 ""
b101 ;"
b101 X"
b101 d"
b101 v"
b1 w
b1 4
b1 M
b1 x
b1 B"
b1 i"
b0 5
b0 A"
b0 Z"
b0 h"
b0 ~"
b0 .#
b0 6
b0 @"
b0 }"
b0 -#
b0 <
b0 N
b0 ]
b0 n
b0 |
b0 %"
b0 >"
b0 F"
b0 Y"
b0 f"
b0 z"
b0 4#
b0 8#
0D"
b0 9
b0 K"
b0 |"
b0 3#
b0 ##
b0 ,#
b1000101 #
b1000101 8
b1000101 "#
b1000101 1#
b10111111110000000000000000001000 n"
b10111111110000000000000000001100 7
b10111111110000000000000000001100 m"
b10111111110000000000000000001100 s"
b10111111110000000000000000000100 ;
b10111111110000000000000000000100 &"
b10111111110000000000000000000100 q"
b0 3
b0 K
b0 f
b0 '"
b0 )"
b0 j"
b0 !#
b0 9#
1(
#20
b1010100 (#
b1010100 /#
b10 '#
b10 0#
b0 L
b0 $"
b101 Y
b111 v
b100 h
b1001 g
b10000001011 i
b10000001011 q
b1001 l
b100 m
b1111 e
b1111 =
b1111 O
b1111 ^
b1111 j
b1111 o
b1111 }
b1111 $#
b1000101 G"
b1001010 [
b1001111 Z
b1000101 #"
b1010100 J
b1010100 X
b1010100 r"
b100 G
b100 U
b100 c
b100 c"
b1010100 W
b1010100 b
b10000100000000000001111 2
b10000100000000000001111 C"
b10000100000000000001111 k"
b1111 A
b1111 x"
b1111 B
b1111 <"
b1111 e"
b1111 E
b1111 T
b1111 `
b1111 s
b1111 ""
b1111 ;"
b1111 X"
b1111 d"
b1111 v"
b0 w
b0 4
b0 M
b0 x
b0 B"
b0 i"
b1000101 9
b1000101 K"
b1000101 |"
b1000101 3#
b1000101 ##
b1000101 ,#
b10 5
b10 A"
b10 Z"
b10 h"
b10 ~"
b10 .#
b1000101 d
b110110 \
b1010100 a
b1000101 >
b1000101 P
b1000101 _
b1000101 k
b1000101 p
b1000101 ~
b1000101 l"
b1000101 %#
b1000101 +#
b10 6
b10 @"
b10 }"
b10 -#
b1001 <
b1001 N
b1001 ]
b1001 n
b1001 |
b1001 %"
b1001 >"
b1001 F"
b1001 Y"
b1001 f"
b1001 z"
b1001 4#
b1001 8#
b1001 8"
b10 6"
b10 5"
b0 4"
b1111 :"
b1111 9"
b10000100000000000001111 3"
b100100 T"
b1000010 R"
b1111 N"
b100100010000100000000000001111 )
b100100010000100000000000001111 -
b100100010000100000000000001111 ("
b100100010000100000000000001111 E"
0(
#22
1u"
1*#
0$
b1010100 &
b1010100 H
b1010100 ["
b1010100 ?
b1010100 W"
b1 3
b1 K
b1 f
b1 '"
b1 )"
b1 j"
b1 !#
b1 9#
1(
#24
0(
1+
#26
0u"
0*#
b1100011 (#
b1100011 /#
1/
1$
b1100011 J
b1100011 X
b1100011 r"
10
b1001 /"
b10 -"
b1111 1"
b1111 0"
b10000100000000000001111 *"
b1011011 [
b1011111 Z
b100 Y
b1100011 W
b1100011 b
b1010100 #"
b1010100 G"
b10111111110000000000000000001000 &
b10111111110000000000000000001000 H
b10111111110000000000000000001000 ["
b10111111110000000000000000001000 ?
b10111111110000000000000000001000 W"
b100100010000100000000000001111 ="
b101 h
b10011101100 i
b10011101100 q
b101 m
b1010100 d
b1000101 \
b1100011 a
b1010100 >
b1010100 P
b1010100 _
b1010100 k
b1010100 p
b1010100 ~
b1010100 l"
b1010100 %#
b1010100 +#
b1010100 9
b1010100 K"
b1010100 |"
b1010100 3#
b1010100 ##
b1010100 ,#
b1010100 #
b1010100 8
b1010100 "#
b1010100 1#
b10111111110000000000000000001100 n"
b10111111110000000000000000010000 7
b10111111110000000000000000010000 m"
b10111111110000000000000000010000 s"
b10111111110000000000000000001000 ;
b10111111110000000000000000001000 &"
b10111111110000000000000000001000 q"
b0 3
b0 K
b0 f
b0 '"
b0 )"
b0 j"
b0 !#
b0 9#
1(
#28
b11111 '#
b11111 0#
b10111111110000000000000000010000 (#
b10111111110000000000000000010000 /#
b0 G"
0a"
0`"
0_"
b0 %
b0 ,
b0 F
b0 L"
b0 \"
0^"
b1 b"
b10100010000000000001111 2
b10100010000000000001111 C"
b10100010000000000001111 k"
b0 9
b0 K"
b0 |"
b0 3#
b0 ##
b0 ,#
b10001 5
b10001 A"
b10001 Z"
b10001 h"
b10001 ~"
b10001 .#
b1 <
b1 N
b1 ]
b1 n
b1 |
b1 %"
b1 >"
b1 F"
b1 Y"
b1 f"
b1 z"
b1 4#
b1 8#
0/
b1 8"
b10001 5"
b10100010000000000001111 3"
b100 T"
b1010001 R"
00
b100010100010000000000001111 )
b100010100010000000000001111 -
b100010100010000000000001111 ("
b100010100010000000000001111 E"
0+
0(
#30
1u"
1*#
0$
b11 ]"
b1100000 &
b1100000 H
b1100000 ["
b1100011 ?
b1100011 W"
b1 3
b1 K
b1 f
b1 '"
b1 )"
b1 j"
b1 !#
b1 9#
b0 U"
1(
#32
0(
#34
0u"
0*#
1$
b0 ]"
b1 /"
b10001 ,"
b10100010000000000001111 *"
b10111111110000000000000000010100 (#
b10111111110000000000000000010100 /#
b10111111110000000000000000001100 &
b10111111110000000000000000001100 H
b10111111110000000000000000001100 ["
b10111111110000000000000000001100 ?
b10111111110000000000000000001100 W"
b100010100010000000000001111 ="
1o"
b10111111110000000000000000010000 n"
b10111111110000000000000000010100 7
b10111111110000000000000000010100 m"
b10111111110000000000000000010100 s"
b10111111110000000000000000001100 ;
b10111111110000000000000000001100 &"
b10111111110000000000000000001100 q"
b10111111110000000000000001001000 p"
b0 3
b0 K
b0 f
b0 '"
b0 )"
b0 j"
b0 !#
b0 9#
1(
#36
0)#
b0 '#
b0 0#
b1100 G
b1100 U
b1100 c
b1100 c"
b1010100 (#
b1010100 /#
b0 [
b1010100 Z
b1010100 Y
b1010100 L
b1010100 $"
b1010100 !"
b1010100 y
b1010100 z
b0 #"
b1 h
b0 g
b1101110010000 i
b1101110010000 q
b0 l
b1 m
b1010100 e
b0 \
b10101000 a
b1010100 =
b1010100 O
b1010100 ^
b1010100 j
b1010100 o
b1010100 }
b1010100 $#
b0 v
0{
b1010100 G"
b1010100 J
b1010100 X
b1010100 r"
1a"
1`"
1_"
b1111 %
b1111 ,
b1111 F
b1111 L"
b1111 \"
1^"
b0 b"
b10000100000000000011000 2
b10000100000000000011000 C"
b10000100000000000011000 k"
b11000 A
b11000 x"
b11000 B
b11000 <"
b11000 e"
b11000 E
b11000 T
b11000 `
b11000 s
b11000 ""
b11000 ;"
b11000 X"
b11000 d"
b11000 v"
b1010100 9
b1010100 K"
b1010100 |"
b1010100 3#
b1010100 ##
b1010100 ,#
b10 5
b10 A"
b10 Z"
b10 h"
b10 ~"
b10 .#
b0 <
b0 N
b0 ]
b0 n
b0 |
b0 %"
b0 >"
b0 F"
b0 Y"
b0 f"
b0 z"
b0 4#
b0 8#
1/
b0 8"
b10 5"
b11000 :"
b11000 9"
b10000100000000000011000 3"
b0 T"
b1000010 R"
b11000 N"
10
b10000100000000000011000 )
b10000100000000000011000 -
b10000100000000000011000 ("
b10000100000000000011000 E"
0(
1+
#38
11
1:#
1(
#40
0(
#42
1(
#44
0(
#46
1(
#48
00
0(
0+
#50
1*#
0$
0/
b1010100 &
b1010100 H
b1010100 ["
b1010100 ?
b1010100 W"
01
0:#
b1111 U"
b1 3
b1 K
b1 f
b1 '"
b1 )"
b1 j"
b1 !#
b1 9#
1(
#52
0(
#54
0*#
1$
b10111111110000000000000001001000 &
b10111111110000000000000001001000 H
b10111111110000000000000001001000 ["
b10111111110000000000000001001000 ?
b10111111110000000000000001001000 W"
b0 /"
b10 ,"
b11000 1"
b11000 0"
b10000100000000000011000 *"
b0 3
b0 K
b0 f
b0 '"
b0 )"
b0 j"
b0 !#
b0 9#
0o"
b10111111110000000000000001001100 n"
b10111111110000000000000001010000 7
b10111111110000000000000001010000 m"
b10111111110000000000000001010000 s"
b10111111110000000000000001001000 ;
b10111111110000000000000001001000 &"
b10111111110000000000000001001000 q"
b1101110010000 C
b1101110010000 R
b1101110010000 r
b1101110010000 @
b1101110010000 Q
b1101110010000 u
b1101110010000 y"
b10000100000000000011000 ="
1(
#56
b1000 J
b1000 X
b1000 r"
b1000 L
b1000 $"
b1000 Z
b1000101 (#
b1000101 /#
b1000 z
b1000 y
b1000 !"
b1000 e
b1000 =
b1000 O
b1000 ^
b1000 j
b1000 o
b1000 }
b1000 $#
b10 '#
b10 0#
b1000 [
b0 Y
b1 2"
b10 G
b10 U
b10 c
b10 c"
b1000 W
b1000 b
b11 b"
b1010100 !
b1010100 .
b1010100 6#
1/
b10101000100000000000001000 2
b10101000100000000000001000 C"
b10101000100000000000001000 k"
b1000 A
b1000 x"
b1000 B
b1000 <"
b1000 e"
b1000 E
b1000 T
b1000 `
b1000 s
b1000 ""
b1000 ;"
b1000 X"
b1000 d"
b1000 v"
b0 h
b0 i
b0 q
b0 m
b0 d
b11111111111111111111111111111000 \
b1000 a
b0 >
b0 P
b0 _
b0 k
b0 p
b0 ~
b0 l"
b0 %#
b0 +#
b10101 6
b10101 @"
b10101 }"
b10101 -#
b101011 <
b101011 N
b101011 ]
b101011 n
b101011 |
b101011 %"
b101011 >"
b101011 F"
b101011 Y"
b101011 f"
b101011 z"
b101011 4#
b101011 8#
10
b101011 8"
b10101 6"
b1000 :"
b1000 9"
b10101000100000000000001000 3"
b10101110 T"
b10100010 R"
b1000 N"
1S"
1Q"
1+
b10101110101000100000000000001000 )
b10101110101000100000000000001000 -
b10101110101000100000000000001000 ("
b10101110101000100000000000001000 E"
0(
#58
11
1:#
1(
#60
00
0+
0(
#62
1*#
0$
1"
b1000 &
b1000 H
b1000 ["
b1000 ?
b1000 W"
0/
b1 3
b1 K
b1 f
b1 '"
b1 )"
b1 j"
b1 !#
b1 9#
01
0:#
1(
#64
0*#
1/
10
1+
0(
#66
0)#
0*#
b1000101 (#
b1000101 /#
10
1"
b1000 &
b1000 H
b1000 ["
b1000 ?
b1000 W"
b10 '#
b10 0#
b1000 J
b1000 X
b1000 r"
b1000 L
b1000 $"
b1000 W
b1000 b
b1000 z
b1000 y
b1000 !"
b1000 e
b1000 =
b1000 O
b1000 ^
b1000 j
b1000 o
b1000 }
b1000 $#
b1000 [
b1000 Z
b1 2"
b10 G
b10 U
b10 c
b10 c"
b11 b"
b101011 /"
b10101 -"
b1000 1"
b1000 0"
b10101000100000000000001000 *"
b10101000100000000000001000 2
b10101000100000000000001000 C"
b10101000100000000000001000 k"
b1000 A
b1000 x"
b1000 B
b1000 <"
b1000 e"
b1000 E
b1000 T
b1000 `
b1000 s
b1000 ""
b1000 ;"
b1000 X"
b1000 d"
b1000 v"
b0 h
b0 g
b0 i
b0 q
b0 l
b0 m
b0 d
b11111111111111111111111111111000 \
b1000 a
b0 >
b0 P
b0 _
b0 k
b0 p
b0 ~
b0 l"
b0 %#
b0 +#
b10101 6
b10101 @"
b10101 }"
b10101 -#
b101011 <
b101011 N
b101011 ]
b101011 n
b101011 |
b101011 %"
b101011 >"
b101011 F"
b101011 Y"
b101011 f"
b101011 z"
b101011 4#
b101011 8#
11
1:#
b10101110101000100000000000001000 ="
1D"
1(
#68
0(
#70
1(
#72
1*#
00
0+
0(
#74
0*#
1$
0"
0/
b10111111110000000000000001001100 &
b10111111110000000000000001001100 H
b10111111110000000000000001001100 ["
b10111111110000000000000001001100 ?
b10111111110000000000000001001100 W"
01
0:#
b10111111110000000000000001010000 n"
b10111111110000000000000001010100 7
b10111111110000000000000001010100 m"
b10111111110000000000000001010100 s"
b10111111110000000000000001001100 ;
b10111111110000000000000001001100 &"
b10111111110000000000000001001100 q"
b0 3
b0 K
b0 f
b0 '"
b0 )"
b0 j"
b0 !#
b0 9#
1(
