Floro_Stuff/MIPS/mips_cpu_test.vcd
$date
	Tue Dec 14 14:21:28 2021
$end
$version
	Icarus Verilog
$end
$timescale
	1s
$end
$scope module mips_cpu_test $end
$var wire 32 ! writedata [31:0] $end
$var wire 8 " writebyte3 [7:0] $end
$var wire 8 # writebyte2 [7:0] $end
$var wire 1 $ write $end
$var wire 32 % register_v0 [31:0] $end
$var wire 1 & read $end
$var wire 4 ' byteenable [3:0] $end
$var wire 32 ( address [31:0] $end
$var wire 1 ) active $end
$var reg 1 * clk $end
$var reg 5 + mappedaddress [4:0] $end
$var reg 32 , readdata [31:0] $end
$var reg 1 - reset $end
$var reg 1 . waitrequest $end
$scope module dut $end
$var wire 1 / PC_write_condcomb $end
$var wire 1 * clk $end
$var wire 32 0 readdata [31:0] $end
$var wire 1 - reset $end
$var wire 1 . waitrequest $end
$var wire 32 1 writedata [31:0] $end
$var wire 1 $ write $end
$var wire 5 2 shift [4:0] $end
$var wire 5 3 rt [4:0] $end
$var wire 5 4 rs [4:0] $end
$var wire 32 5 register_v0 [31:0] $end
$var wire 1 6 reg_write $end
$var wire 2 7 reg_dest [1:0] $end
$var wire 2 8 reg_data_sel [1:0] $end
$var wire 5 9 reg_data_dest [4:0] $end
$var wire 32 : reg_data [31:0] $end
$var wire 32 ; reg_B [31:0] $end
$var wire 32 < reg_A [31:0] $end
$var wire 1 & read $end
$var wire 5 = rd [4:0] $end
$var wire 6 > op [5:0] $end
$var wire 32 ? mem_paddr [31:0] $end
$var wire 32 @ mem_data [31:0] $end
$var wire 26 A mem_address [25:0] $end
$var wire 1 B lo_sel $end
$var wire 32 C lo_out [31:0] $end
$var wire 32 D lo_in [31:0] $end
$var wire 1 E lo_en $end
$var wire 32 F jumpaddress [31:0] $end
$var wire 2 G instr_type [1:0] $end
$var wire 32 H i_ex_sl [31:0] $end
$var wire 32 I i_ex [31:0] $end
$var wire 16 J i [15:0] $end
$var wire 1 K hi_sel $end
$var wire 32 L hi_out [31:0] $end
$var wire 32 M hi_in [31:0] $end
$var wire 1 N hi_en $end
$var wire 6 O func [5:0] $end
$var wire 1 P extend $end
$var wire 32 Q data_2 [31:0] $end
$var wire 32 R data_1 [31:0] $end
$var wire 4 S byteenable [3:0] $end
$var wire 32 T address [31:0] $end
$var wire 1 ) active $end
$var wire 1 U PC_write_cond $end
$var wire 1 V PC_write $end
$var wire 2 W PC_src [1:0] $end
$var wire 32 X PC_out [31:0] $end
$var wire 32 Y PC_in [31:0] $end
$var wire 1 Z IoD $end
$var wire 1 [ IR_write $end
$var wire 1 \ IR_sel $end
$var wire 32 ] ALUout_delay [31:0] $end
$var wire 32 ^ ALUout [31:0] $end
$var wire 5 _ ALUop [4:0] $end
$var wire 32 ` ALUlo [31:0] $end
$var wire 32 a ALUhi [31:0] $end
$var wire 2 b ALU_srcB [1:0] $end
$var wire 1 c ALU_srcA $end
$var wire 32 d ALU_inB [31:0] $end
$var wire 32 e ALU_inA [31:0] $end
$scope module A $end
$var wire 1 * clk $end
$var wire 1 - reset $end
$var wire 32 f data_in [31:0] $end
$var reg 32 g data_out [31:0] $end
$var reg 32 h reg_val [31:0] $end
$upscope $end
$scope module ALUo $end
$var wire 1 * clk $end
$var wire 1 - reset $end
$var wire 32 i data_in [31:0] $end
$var reg 32 j data_out [31:0] $end
$var reg 32 k reg_val [31:0] $end
$upscope $end
$scope module B $end
$var wire 1 * clk $end
$var wire 1 - reset $end
$var wire 32 l data_in [31:0] $end
$var reg 32 m data_out [31:0] $end
$var reg 32 n reg_val [31:0] $end
$upscope $end
$scope module j_adrs $end
$var wire 32 o pc_val [31:0] $end
$var wire 26 p mem_address [25:0] $end
$var wire 32 q jump_address [31:0] $end
$upscope $end
$scope module mips_IoD $end
$var wire 1 Z select $end
$var wire 32 r input_1 [31:0] $end
$var wire 32 s input_0 [31:0] $end
$var reg 32 t out [31:0] $end
$upscope $end
$scope module mips_alu $end
$var wire 5 u tmp_shift [4:0] $end
$var wire 5 v shift [4:0] $end
$var wire 32 w rt [31:0] $end
$var wire 32 x rs [31:0] $end
$var wire 32 y ALU_lo [31:0] $end
$var wire 32 z ALU_hi [31:0] $end
$var wire 5 { ALU_ctrl [4:0] $end
$var reg 32 | ALU_out [31:0] $end
$var reg 64 } tmp [63:0] $end
$upscope $end
$scope module mips_aluA_mux $end
$var wire 32 ~ input_1 [31:0] $end
$var wire 1 c select $end
$var wire 32 !" input_0 [31:0] $end
$var reg 32 "" out [31:0] $end
$upscope $end
$scope module mips_aluB_mux $end
$var wire 32 #" input_0 [31:0] $end
$var wire 32 $" input_1 [31:0] $end
$var wire 2 %" select [1:0] $end
$var wire 32 &" input_3 [31:0] $end
$var wire 32 '" input_2 [31:0] $end
$var reg 32 (" out [31:0] $end
$upscope $end
$scope module mips_control $end
$var wire 1 * clk $end
$var wire 1 - reset $end
$var wire 1 . waitrequest $end
$var wire 5 )" rt [4:0] $end
$var wire 6 *" op [5:0] $end
$var wire 6 +" func [5:0] $end
$var wire 32 ," address [31:0] $end
$var reg 1 c ALU_srcA $end
$var reg 2 -" ALU_srcB [1:0] $end
$var reg 5 ." ALUop [4:0] $end
$var reg 1 \ IR_sel $end
$var reg 1 [ IR_write $end
$var reg 1 Z IoD $end
$var reg 2 /" PC_src [1:0] $end
$var reg 1 V PC_write $end
$var reg 1 U PC_write_cond $end
$var reg 1 ) active $end
$var reg 1 P extend $end
$var reg 1 N hi_en $end
$var reg 1 K hi_sel $end
$var reg 2 0" instr_type [1:0] $end
$var reg 1 E lo_en $end
$var reg 1 B lo_sel $end
$var reg 1 & mem_read $end
$var reg 1 $ mem_write $end
$var reg 2 1" reg_data_sel [1:0] $end
$var reg 2 2" reg_dest [1:0] $end
$var reg 1 6 reg_write $end
$var reg 3 3" state [2:0] $end
$upscope $end
$scope module mips_extend $end
$var wire 1 P zero_sign $end
$var wire 1 4" tmp $end
$var wire 16 5" in [15:0] $end
$var reg 32 6" out [31:0] $end
$upscope $end
$scope module mips_hi_reg $end
$var wire 1 * clk $end
$var wire 1 N enable $end
$var wire 1 - reset $end
$var wire 32 7" data_in [31:0] $end
$var reg 32 8" data_out [31:0] $end
$var reg 32 9" reg_val [31:0] $end
$upscope $end
$scope module mips_hi_reg_mux $end
$var wire 32 :" input_0 [31:0] $end
$var wire 32 ;" input_1 [31:0] $end
$var wire 1 K select $end
$var reg 32 <" out [31:0] $end
$upscope $end
$scope module mips_ir $end
$var wire 1 [ IRWrite $end
$var wire 1 \ IR_sel $end
$var wire 1 * clk $end
$var wire 32 =" mem_input [31:0] $end
$var wire 1 - reset $end
$var wire 5 >" t_shift [4:0] $end
$var wire 5 ?" t_rt [4:0] $end
$var wire 5 @" t_rs [4:0] $end
$var wire 5 A" t_rd [4:0] $end
$var wire 6 B" t_op [5:0] $end
$var wire 26 C" t_mem_address [25:0] $end
$var wire 16 D" t_i [15:0] $end
$var wire 6 E" t_func [5:0] $end
$var wire 5 F" m_shift [4:0] $end
$var wire 5 G" m_rt [4:0] $end
$var wire 5 H" m_rs [4:0] $end
$var wire 5 I" m_rd [4:0] $end
$var wire 6 J" m_op [5:0] $end
$var wire 26 K" m_mem_address [25:0] $end
$var wire 16 L" m_i [15:0] $end
$var wire 6 M" m_func [5:0] $end
$var reg 6 N" func [5:0] $end
$var reg 16 O" i [15:0] $end
$var reg 32 P" instr [31:0] $end
$var reg 26 Q" mem_address [25:0] $end
$var reg 6 R" op [5:0] $end
$var reg 5 S" rd [4:0] $end
$var reg 5 T" rs [4:0] $end
$var reg 5 U" rt [4:0] $end
$var reg 5 V" shift [4:0] $end
$upscope $end
$scope module mips_lo_reg $end
$var wire 1 * clk $end
$var wire 1 E enable $end
$var wire 1 - reset $end
$var wire 32 W" data_in [31:0] $end
$var reg 32 X" data_out [31:0] $end
$var reg 32 Y" reg_val [31:0] $end
$upscope $end
$scope module mips_lo_reg_mux $end
$var wire 32 Z" input_0 [31:0] $end
$var wire 32 [" input_1 [31:0] $end
$var wire 1 B select $end
$var reg 32 \" out [31:0] $end
$upscope $end
$scope module mips_mem_dec $end
$var wire 1 * clk $end
$var wire 32 ]" data_in [31:0] $end
$var wire 6 ^" op [5:0] $end
$var wire 1 - reset $end
$var wire 32 _" rt [31:0] $end
$var wire 8 `" rt_byte3 [7:0] $end
$var wire 8 a" rt_byte2 [7:0] $end
$var wire 8 b" rt_byte1 [7:0] $end
$var wire 8 c" rt_byte0 [7:0] $end
$var wire 4 d" byteenable [3:0] $end
$var wire 1 e" byte3_msb $end
$var wire 8 f" byte3 [7:0] $end
$var wire 1 g" byte2_msb $end
$var wire 8 h" byte2 [7:0] $end
$var wire 1 i" byte1_msb $end
$var wire 8 j" byte1 [7:0] $end
$var wire 1 k" byte0_msb $end
$var wire 8 l" byte0 [7:0] $end
$var reg 4 m" be_signal [3:0] $end
$var reg 32 n" data_out [31:0] $end
$upscope $end
$scope module mips_out $end
$var wire 32 o" cpu_out [31:0] $end
$var wire 2 p" instr_type [1:0] $end
$var wire 6 q" op [5:0] $end
$var wire 32 r" mem_addr [31:0] $end
$var wire 4 s" byteenable [3:0] $end
$var wire 2 t" byte_idx [1:0] $end
$var reg 1 u" byte0 $end
$var reg 1 v" byte1 $end
$var reg 1 w" byte2 $end
$var reg 1 x" byte3 $end
$upscope $end
$scope module mips_pc $end
$var wire 1 * clk $end
$var wire 2 y" instr_type [1:0] $end
$var wire 1 V pc_ctrl $end
$var wire 1 / pc_write_cond $end
$var wire 1 - reset $end
$var wire 1 . waitrequest $end
$var wire 32 z" nxt_pc_val [31:0] $end
$var reg 32 {" BoJ [31:0] $end
$var reg 1 |" BoJ_flag $end
$var reg 3 }" counter [2:0] $end
$var reg 32 ~" cur_pc_val [31:0] $end
$var reg 32 !# pc_val [31:0] $end
$upscope $end
$scope module mips_pc_mux $end
$var wire 32 "# input_0 [31:0] $end
$var wire 32 ## input_1 [31:0] $end
$var wire 32 $# input_2 [31:0] $end
$var wire 32 %# input_3 [31:0] $end
$var wire 2 &# select [1:0] $end
$var reg 32 '# out [31:0] $end
$upscope $end
$scope module mips_reg_data_in $end
$var wire 32 (# input_0 [31:0] $end
$var wire 32 )# input_1 [31:0] $end
$var wire 32 *# input_2 [31:0] $end
$var wire 32 +# input_3 [31:0] $end
$var wire 2 ,# select [1:0] $end
$var reg 32 -# out [31:0] $end
$upscope $end
$scope module mips_reg_write_adr_mux $end
$var wire 5 .# input_0 [4:0] $end
$var wire 5 /# input_1 [4:0] $end
$var wire 5 0# input_2 [4:0] $end
$var wire 2 1# select [1:0] $end
$var reg 5 2# out [4:0] $end
$upscope $end
$scope module mips_register $end
$var wire 1 6 Regwrite $end
$var wire 1 * clk $end
$var wire 5 3# read_register_1 [4:0] $end
$var wire 5 4# read_register_2 [4:0] $end
$var wire 32 5# register_v0 [31:0] $end
$var wire 1 - reset $end
$var wire 32 6# write_data [31:0] $end
$var wire 5 7# write_register [4:0] $end
$var reg 32 8# a0 [31:0] $end
$var reg 32 9# a1 [31:0] $end
$var reg 32 :# a2 [31:0] $end
$var reg 32 ;# a3 [31:0] $end
$var reg 32 <# at [31:0] $end
$var reg 32 =# fp [31:0] $end
$var reg 32 ># gp [31:0] $end
$var reg 32 ?# k0 [31:0] $end
$var reg 32 @# k1 [31:0] $end
$var reg 32 A# ra [31:0] $end
$var reg 32 B# read_data_1 [31:0] $end
$var reg 32 C# read_data_2 [31:0] $end
$var reg 32 D# s0 [31:0] $end
$var reg 32 E# s1 [31:0] $end
$var reg 32 F# s2 [31:0] $end
$var reg 32 G# s3 [31:0] $end
$var reg 32 H# s4 [31:0] $end
$var reg 32 I# s5 [31:0] $end
$var reg 32 J# s6 [31:0] $end
$var reg 32 K# s7 [31:0] $end
$var reg 32 L# sp [31:0] $end
$var reg 32 M# t0 [31:0] $end
$var reg 32 N# t1 [31:0] $end
$var reg 32 O# t2 [31:0] $end
$var reg 32 P# t3 [31:0] $end
$var reg 32 Q# t4 [31:0] $end
$var reg 32 R# t5 [31:0] $end
$var reg 32 S# t6 [31:0] $end
$var reg 32 T# t7 [31:0] $end
$var reg 32 U# t8 [31:0] $end
$var reg 32 V# t9 [31:0] $end
$var reg 32 W# v0 [31:0] $end
$var reg 32 X# v1 [31:0] $end
$var reg 32 Y# zero [31:0] $end
$upscope $end
$scope module mips_shift2 $end
$var wire 32 Z# in [31:0] $end
$var wire 32 [# out [31:0] $end
$upscope $end
$scope module mips_store $end
$var wire 32 \# data_in [31:0] $end
$var wire 6 ]# op [5:0] $end
$var reg 8 ^# byte3 [7:0] $end
$var reg 32 _# data_out [31:0] $end
$var reg 16 `# halfword [15:0] $end
$upscope $end
$upscope $end
$scope begin $unm_blk_4 $end
$var integer 32 a# i [31:0] $end
$upscope $end
$upscope $end
$enddefinitions $end
#0
$dumpvars
b10101 a#
bx `#
bx _#
bx ^#
b0 ]#
b0 \#
b0 [#
b0 Z#
bx Y#
bx X#
bx W#
bx V#
bx U#
bx T#
bx S#
bx R#
bx Q#
bx P#
bx O#
bx N#
bx M#
bx L#
bx K#
bx J#
bx I#
bx H#
bx G#
bx F#
bx E#
bx D#
b0 C#
b0 B#
bx A#
bx @#
bx ?#
bx >#
bx =#
bx <#
bx ;#
bx :#
bx 9#
bx 8#
b0 7#
b10111111110000000000000000000100 6#
bx 5#
b0 4#
b0 3#
b0 2#
b0 1#
b11111 0#
b0 /#
b0 .#
b10111111110000000000000000000100 -#
b0 ,#
b0 +#
b0 *#
bx )#
b10111111110000000000000000000100 (#
b10111111110000000000000000000100 '#
b1 &#
b0 %#
b10110000000000000000000000000000 $#
b10111111110000000000000000000100 ##
b0 "#
bx !#
b10111111110000000000000000000000 ~"
bx }"
x|"
bx {"
b10111111110000000000000000000100 z"
b0 y"
1x"
1w"
1v"
1u"
b0 t"
b1111 s"
b10111111110000000000000000000000 r"
b0 q"
b0 p"
b10111111110000000000000000000000 o"
bx n"
bx m"
bx l"
xk"
bx j"
xi"
bx h"
xg"
bx f"
xe"
b1111 d"
b0 c"
b0 b"
b0 a"
b0 `"
b0 _"
b0 ^"
bx ]"
bx \"
b10111111110000000000000000000100 ["
bx Z"
bx Y"
b0 X"
bx W"
b0 V"
b0 U"
b0 T"
b0 S"
b0 R"
b0 Q"
bx P"
b0 O"
b0 N"
bx M"
bx L"
bx K"
bx J"
bx I"
bx H"
bx G"
bx F"
bx E"
bx D"
bx C"
bx B"
bx A"
bx @"
bx ?"
bx >"
bx ="
bx <"
b10111111110000000000000000000100 ;"
bx :"
bx 9"
b0 8"
bx 7"
b0 6"
b0 5"
04"
b0 3"
b0 2"
b0 1"
b0 0"
b1 /"
b0 ."
b1 -"
b10111111110000000000000000000000 ,"
b0 +"
b0 *"
b0 )"
b100 ("
b0 '"
b0 &"
b1 %"
b100 $"
b0 #"
b10111111110000000000000000000000 ""
b10111111110000000000000000000000 !"
b0 ~
bx }
b10111111110000000000000000000100 |
b0 {
bx z
bx y
b10111111110000000000000000000000 x
b100 w
b0 v
b100 u
b10111111110000000000000000000000 t
b10111111110000000000000000000000 s
b10111111110000000000000000000100 r
b10110000000000000000000000000000 q
b0 p
b10111111110000000000000000000000 o
b0 n
b0 m
b0 l
b0 k
b0 j
b10111111110000000000000000000100 i
b0 h
b0 g
b0 f
b10111111110000000000000000000000 e
b100 d
0c
b1 b
bx a
bx `
b0 _
b10111111110000000000000000000100 ^
b0 ]
0\
0[
0Z
b10111111110000000000000000000100 Y
b10111111110000000000000000000000 X
b1 W
1V
0U
b10111111110000000000000000000000 T
b1111 S
b0 R
b0 Q
0P
b0 O
0N
bx M
b0 L
0K
b0 J
b0 I
b0 H
b0 G
b10110000000000000000000000000000 F
0E
bx D
b0 C
0B
b0 A
bx @
b10111111110000000000000000000000 ?
b0 >
b0 =
b0 <
b0 ;
b10111111110000000000000000000100 :
b0 9
b0 8
b0 7
06
bx 5
b0 4
b0 3
b0 2
bx 1
bx 0
0/
0.
1-
bx ,
b0 +
0*
0)
b10111111110000000000000000000000 (
b1111 '
1&
bx %
0$
bx #
bx "
bx !
$end
#10
b0 B"
b0 @"
b0 ?"
b0 A"
b0 >"
b0 E"
b0 D"
b0 C"
b1111 J"
b0 H"
b1000 G"
b10111 I"
b11111 F"
b0 M"
b1011111111000000 L"
b10001011111111000000 K"
b111100 l"
b1000 j"
b10111111 h"
b11000000 f"
0k"
0i"
1g"
1e"
b0 P"
b0 A#
b0 =#
b0 L#
b0 >#
b0 @#
b0 ?#
b0 V#
b0 U#
b0 K#
b0 J#
b0 I#
b0 H#
b0 G#
b0 F#
b0 E#
b0 D#
b0 T#
b0 S#
b0 R#
b0 Q#
b0 P#
b0 O#
b0 N#
b0 M#
b0 ;#
b0 :#
b0 9#
b0 8#
b0 X#
b0 %
b0 5
b0 5#
b0 W#
b0 <#
b0 Y#
b0 m"
b0 Y"
b0 9"
b0 }"
b0 {"
b10111111110000000000000000000000 !#
1)
b111100000010001011111111000000 ,
b111100000010001011111111000000 0
b111100000010001011111111000000 ="
b111100000010001011111111000000 ]"
1*
#20
b10111111110000000000000000000100 ]
b10111111110000000000000000000100 j
b10111111110000000000000000000100 "#
b10111111110000000000000000000100 k
0*
0-
#30
b10111111101111101111111100000100 Y
b10111111101111101111111100000100 z"
b10111111101111101111111100000100 '#
b10111111101111101111111100000100 :
b10111111101111101111111100000100 -#
b10111111101111101111111100000100 6#
b10111111101111101111111100000100 ^
b10111111101111101111111100000100 i
b10111111101111101111111100000100 r
b10111111101111101111111100000100 |
b10111111101111101111111100000100 ;"
b10111111101111101111111100000100 ["
b10111111101111101111111100000100 ##
b10111111101111101111111100000100 (#
b11111111111111101111111100000000 H
b11111111111111101111111100000000 &"
b11111111111111101111111100000000 [#
b0 u
14"
b11111111111111111011111111000000 I
b11111111111111111011111111000000 '"
b11111111111111111011111111000000 6"
b11111111111111111011111111000000 Z#
b1000 9
b1000 2#
b1000 7#
b111100000010001011111111000000 @
b111100000010001011111111000000 n"
b111100000010001011111111000000 )#
b1 +
b11111111111111101111111100000000 d
b11111111111111101111111100000000 w
b11111111111111101111111100000000 ("
b10110000001000101111111100000000 F
b10110000001000101111111100000000 q
b10110000001000101111111100000000 $#
b10001011111111000000 A
b10001011111111000000 p
b10001011111111000000 Q"
b1011111111000000 J
b1011111111000000 5"
b1011111111000000 O"
b11111 2
b11111 v
b11111 V"
b1000 3
b1000 )"
b1000 U"
b1000 .#
b1000 4#
b10111 =
b10111 S"
b10111 /#
b1111 >
b1111 *"
b1111 R"
b1111 ^"
b1111 q"
b1111 ]#
b10111111110000000000000000000100 (
b10111111110000000000000000000100 T
b10111111110000000000000000000100 ,"
b10111111110000000000000000000100 r"
b10111111110000000000000000000100 ?
b10111111110000000000000000000100 t
b10111111110000000000000000000100 o"
b10111111110000000000000000000100 e
b10111111110000000000000000000100 x
b10111111110000000000000000000100 ""
0V
b11 b
b11 %"
b11 -"
1\
1[
0&
b10111111110000000000000000000100 X
b10111111110000000000000000000100 o
b10111111110000000000000000000100 s
b10111111110000000000000000000100 !"
b10111111110000000000000000000100 ~"
b1 3"
b10111111110000000000000000000100 !#
b1111 m"
1*
#40
b10111111101111101111111100000100 ]
b10111111101111101111111100000100 j
b10111111101111101111111100000100 "#
b10111111101111101111111100000100 k
0*
#50
b10111111110000000000000000000000 :
b10111111110000000000000000000000 -#
b10111111110000000000000000000000 6#
b11111111111111111011111111000000 d
b11111111111111111011111111000000 w
b11111111111111111011111111000000 ("
b10111111110000000000000000000000 ^
b10111111110000000000000000000000 i
b10111111110000000000000000000000 r
b10111111110000000000000000000000 |
b10111111110000000000000000000000 ;"
b10111111110000000000000000000000 ["
b10111111110000000000000000000000 ##
b10111111110000000000000000000000 (#
b0 e
b0 x
b0 ""
b1111 B"
b1000 ?"
b10111 A"
b11111 >"
b1011111111000000 D"
b10001011111111000000 C"
b10 b
b10 %"
b10 -"
b11001 _
b11001 {
b11001 ."
1c
b0 W
b0 /"
b0 &#
0\
0[
16
b111100000010001011111111000000 P"
b10 3"
1*
#60
b10111111110000000000000000000000 Y
b10111111110000000000000000000000 z"
b10111111110000000000000000000000 '#
b10111111110000000000000000000000 ]
b10111111110000000000000000000000 j
b10111111110000000000000000000000 "#
b10111111110000000000000000000000 k
0*
#70
b10111111110000000000000000001000 :
b10111111110000000000000000001000 -#
b10111111110000000000000000001000 6#
b100 u
b10111111110000000000000000001000 Y
b10111111110000000000000000001000 z"
b10111111110000000000000000001000 '#
b10111111110000000000000000001000 ^
b10111111110000000000000000001000 i
b10111111110000000000000000001000 r
b10111111110000000000000000001000 |
b10111111110000000000000000001000 ;"
b10111111110000000000000000001000 ["
b10111111110000000000000000001000 ##
b10111111110000000000000000001000 (#
b100 d
b100 w
b100 ("
b10111111110000000000000000000100 e
b10111111110000000000000000000100 x
b10111111110000000000000000000100 ""
1V
b1 W
b1 /"
b1 &#
b0 _
b0 {
b0 ."
b1 b
b1 %"
b1 -"
0c
06
1&
b10111111110000000000000000000000 Q
b10111111110000000000000000000000 l
b10111111110000000000000000000000 C#
b0 3"
b10111111110000000000000000000000 M#
1*
#80
b10111111 c"
b11000000 b"
b10111111110000000000000000000000 ;
b10111111110000000000000000000000 m
b10111111110000000000000000000000 #"
b10111111110000000000000000000000 _"
b10111111110000000000000000000000 \#
b10111111110000000000000000001000 ]
b10111111110000000000000000001000 j
b10111111110000000000000000001000 "#
b10111111110000000000000000000000 n
b10111111110000000000000000001000 k
0*
#90
b10110000 H
b10110000 &"
b10110000 [#
b10111111110000000000000010111000 :
b10111111110000000000000010111000 -#
b10111111110000000000000010111000 6#
1x"
1w"
1v"
b1111 '
b1111 S
b1111 d"
b1111 s"
1u"
b10 +
b10000 u
b10111111110000000000000010111000 Y
b10111111110000000000000010111000 z"
b10111111110000000000000010111000 '#
04"
b101100 I
b101100 '"
b101100 6"
b101100 Z#
b10111111110000000000000010111000 ^
b10111111110000000000000010111000 i
b10111111110000000000000010111000 r
b10111111110000000000000010111000 |
b10111111110000000000000010111000 ;"
b10111111110000000000000010111000 ["
b10111111110000000000000010111000 ##
b10111111110000000000000010111000 (#
b1001 9
b1001 2#
b1001 7#
b0 Q
b0 l
b0 C#
b10111111110000000000000000000000 R
b10111111110000000000000000000000 f
b10111111110000000000000000000000 B#
b10 G
b10 0"
b10 p"
b10 y"
b10111111110000000000000000001000 (
b10111111110000000000000000001000 T
b10111111110000000000000000001000 ,"
b10111111110000000000000000001000 r"
b10111111110000000000000000001000 ?
b10111111110000000000000000001000 t
b10111111110000000000000000001000 o"
b10111111110000000000000000001000 e
b10111111110000000000000000001000 x
b10111111110000000000000000001000 ""
b10110000 d
b10110000 w
b10110000 ("
b10110100001001000000000010110000 F
b10110100001001000000000010110000 q
b10110100001001000000000010110000 $#
b1000010010000000000101100 A
b1000010010000000000101100 p
b1000010010000000000101100 Q"
b101100 J
b101100 5"
b101100 O"
b101100 O
b101100 +"
b101100 N"
b0 2
b0 v
b0 V"
b1001 3
b1001 )"
b1001 U"
b1001 .#
b1001 4#
b0 =
b0 S"
b0 /#
b1000 4
b1000 T"
b1000 3#
b100011 >
b100011 *"
b100011 R"
b100011 ^"
b100011 q"
b100011 ]#
b10001101000010010000000000101100 @
b10001101000010010000000000101100 n"
b10001101000010010000000000101100 )#
b10111111110000000000000000001000 X
b10111111110000000000000000001000 o
b10111111110000000000000000001000 s
b10111111110000000000000000001000 !"
b10111111110000000000000000001000 ~"
0V
b11 b
b11 %"
b11 -"
1\
1[
0&
b100011 J"
b1000 H"
b1001 G"
b0 I"
b0 F"
b101100 M"
b101100 L"
b1000010010000000000101100 K"
b10001101 l"
b1001 j"
b0 h"
b101100 f"
1k"
0g"
0e"
b10111111110000000000000000001000 !#
b1 3"
b10001101000010010000000000101100 ,
b10001101000010010000000000101100 0
b10001101000010010000000000101100 ="
b10001101000010010000000000101100 ]"
1*
#100
b0 c"
b0 b"
b10111111110000000000000010111000 ]
b10111111110000000000000010111000 j
b10111111110000000000000010111000 "#
b0 ;
b0 m
b0 #"
b0 _"
b0 \#
b10111111110000000000000000000000 <
b10111111110000000000000000000000 g
b10111111110000000000000000000000 ~
b10111111110000000000000000000000 %#
b10111111110000000000000010111000 k
b0 n
b10111111110000000000000000000000 h
0*
#110
b10111111110000000000000000101100 :
b10111111110000000000000000101100 -#
b10111111110000000000000000101100 6#
b1011 +
b1100 u
b10111111110000000000000000101100 ^
b10111111110000000000000000101100 i
b10111111110000000000000000101100 r
b10111111110000000000000000101100 |
b10111111110000000000000000101100 ;"
b10111111110000000000000000101100 ["
b10111111110000000000000000101100 ##
b10111111110000000000000000101100 (#
b10111111110000000000000000101100 (
b10111111110000000000000000101100 T
b10111111110000000000000000101100 ,"
b10111111110000000000000000101100 r"
b10111111110000000000000000101100 ?
b10111111110000000000000000101100 t
b10111111110000000000000000101100 o"
b101100 d
b101100 w
b101100 ("
b10111111110000000000000000000000 e
b10111111110000000000000000000000 x
b10111111110000000000000000000000 ""
1Z
1&
b10 b
b10 %"
b10 -"
1c
b0 W
b0 /"
b0 &#
0\
0[
06
b100011 B"
b1000 @"
b1001 ?"
b0 A"
b0 >"
b101100 E"
b101100 D"
b1000010010000000000101100 C"
b10 3"
b10001101000010010000000000101100 P"
1*
#120
b10111111110000000000000000101100 Y
b10111111110000000000000000101100 z"
b10111111110000000000000000101100 '#
b10111111110000000000000000101100 ]
b10111111110000000000000000101100 j
b10111111110000000000000000101100 "#
b10111111110000000000000000101100 k
0*
#130
b10 +
b0 u
b10111111110000000000000000001000 ^
b10111111110000000000000000001000 i
b10111111110000000000000000001000 r
b10111111110000000000000000001000 |
b10111111110000000000000000001000 ;"
b10111111110000000000000000001000 ["
b10111111110000000000000000001000 ##
b10111111110000000000000000001000 (#
b10111111110000000000000000001000 (
b10111111110000000000000000001000 T
b10111111110000000000000000001000 ,"
b10111111110000000000000000001000 r"
b10111111110000000000000000001000 ?
b10111111110000000000000000001000 t
b10111111110000000000000000001000 o"
b0 d
b0 w
b0 ("
b10111111110000000000000000001000 e
b10111111110000000000000000001000 x
b10111111110000000000000000001000 ""
b11110011 :
b11110011 -#
b11110011 6#
b11110011 @
b11110011 n"
b11110011 )#
0Z
b0 b
b0 %"
b0 -"
0c
16
b1 8
b1 1"
b1 ,#
0&
b0 J"
b0 H"
b0 G"
b11 F"
b110011 M"
b11110011 L"
b11110011 K"
b0 l"
b0 j"
b11110011 f"
0k"
1e"
b11 3"
b11110011 ,
b11110011 0
b11110011 ="
b11110011 ]"
1*
#140
b10111111110000000000000000001000 Y
b10111111110000000000000000001000 z"
b10111111110000000000000000001000 '#
b10111111110000000000000000001000 ]
b10111111110000000000000000001000 j
b10111111110000000000000000001000 "#
b10111111110000000000000000001000 k
0*
#150
b10111111110000000000000000001100 Y
b10111111110000000000000000001100 z"
b10111111110000000000000000001100 '#
b100 u
b10111111110000000000000000001100 ^
b10111111110000000000000000001100 i
b10111111110000000000000000001100 r
b10111111110000000000000000001100 |
b10111111110000000000000000001100 ;"
b10111111110000000000000000001100 ["
b10111111110000000000000000001100 ##
b10111111110000000000000000001100 (#
b100 d
b100 w
b100 ("
b10111111110000000000000000001100 :
b10111111110000000000000000001100 -#
b10111111110000000000000000001100 6#
1V
b1 W
b1 /"
b1 &#
b1 b
b1 %"
b1 -"
06
b0 8
b0 1"
b0 ,#
1&
b11110011 Q
b11110011 l
b11110011 C#
b0 3"
b11110011 N#
1*
#160
b11110011 `"
b11110011 ;
b11110011 m
b11110011 #"
b11110011 _"
b11110011 \#
b10111111110000000000000000001100 ]
b10111111110000000000000000001100 j
b10111111110000000000000000001100 "#
b11110011 n
b10111111110000000000000000001100 k
0*
#170
b10111111110000000000000000101100 Y
b10111111110000000000000000101100 z"
b10111111110000000000000000101100 '#
b10111111110000000000000000101100 :
b10111111110000000000000000101100 -#
b10111111110000000000000000101100 6#
b100000 H
b100000 &"
b100000 [#
b11 +
b0 u
b10111111110000000000000000101100 ^
b10111111110000000000000000101100 i
b10111111110000000000000000101100 r
b10111111110000000000000000101100 |
b10111111110000000000000000101100 ;"
b10111111110000000000000000101100 ["
b10111111110000000000000000101100 ##
b10111111110000000000000000101100 (#
b1000 I
b1000 '"
b1000 6"
b1000 Z#
b0 9
b0 2#
b0 7#
b0 Q
b0 l
b0 C#
b0 R
b0 f
b0 B#
b0 G
b0 0"
b0 p"
b0 y"
1x"
1w"
1v"
b1111 '
b1111 S
b1111 d"
b1111 s"
1u"
b10111111110000000000000000001100 (
b10111111110000000000000000001100 T
b10111111110000000000000000001100 ,"
b10111111110000000000000000001100 r"
b10111111110000000000000000001100 ?
b10111111110000000000000000001100 t
b10111111110000000000000000001100 o"
b10111111110000000000000000001100 e
b10111111110000000000000000001100 x
b10111111110000000000000000001100 ""
b100000 d
b100000 w
b100000 ("
b10110000000000000000000000100000 F
b10110000000000000000000000100000 q
b10110000000000000000000000100000 $#
b1000 A
b1000 p
b1000 Q"
b1000 J
b1000 5"
b1000 O"
b1000 O
b1000 +"
b1000 N"
b0 3
b0 )"
b0 U"
b0 .#
b0 4#
b0 4
b0 T"
b0 3#
b0 >
b0 *"
b0 R"
b0 ^"
b0 q"
b0 ]#
b1000 @
b1000 n"
b1000 )#
b10111111110000000000000000001100 X
b10111111110000000000000000001100 o
b10111111110000000000000000001100 s
b10111111110000000000000000001100 !"
b10111111110000000000000000001100 ~"
0V
b11 b
b11 %"
b11 -"
1\
1[
0&
b0 F"
b1000 M"
b1000 L"
b1000 K"
b1000 f"
0e"
b10111111110000000000000000001100 !#
b1 3"
b1000 ,
b1000 0
b1000 ="
b1000 ]"
1*
