Floro_Stuff/MIPS/mips_cpu_test.vcd
$date
	Wed Dec 15 19:09:57 2021
$end
$version
	Icarus Verilog
$end
$timescale
	1s
$end
$scope module mips_cpu_test $end
$var wire 32 ! writedata [31:0] $end
$var wire 1 " write $end
$var wire 32 # register_v0 [31:0] $end
$var wire 1 $ read $end
$var wire 4 % byteenable [3:0] $end
$var wire 32 & address [31:0] $end
$var wire 1 ' active $end
$var reg 1 ( clk $end
$var reg 5 ) mappedaddress [4:0] $end
$var reg 32 * readdata [31:0] $end
$var reg 1 + reset $end
$var reg 1 , waitrequest $end
$scope module dut $end
$var wire 1 - PC_write_condcomb $end
$var wire 1 ( clk $end
$var wire 32 . readdata [31:0] $end
$var wire 1 + reset $end
$var wire 1 , waitrequest $end
$var wire 32 / writedata [31:0] $end
$var wire 1 " write $end
$var wire 5 0 shift [4:0] $end
$var wire 5 1 rt [4:0] $end
$var wire 5 2 rs [4:0] $end
$var wire 32 3 register_v0 [31:0] $end
$var wire 1 4 reg_write $end
$var wire 2 5 reg_dest [1:0] $end
$var wire 2 6 reg_data_sel [1:0] $end
$var wire 5 7 reg_data_dest [4:0] $end
$var wire 32 8 reg_data [31:0] $end
$var wire 32 9 reg_B [31:0] $end
$var wire 32 : reg_A [31:0] $end
$var wire 1 $ read $end
$var wire 5 ; rd [4:0] $end
$var wire 6 < op [5:0] $end
$var wire 32 = mem_paddr [31:0] $end
$var wire 32 > mem_data [31:0] $end
$var wire 26 ? mem_address [25:0] $end
$var wire 1 @ lo_sel $end
$var wire 32 A lo_out [31:0] $end
$var wire 32 B lo_in [31:0] $end
$var wire 1 C lo_en $end
$var wire 32 D jumpaddress [31:0] $end
$var wire 2 E instr_type [1:0] $end
$var wire 32 F i_ex_sl [31:0] $end
$var wire 32 G i_ex [31:0] $end
$var wire 16 H i [15:0] $end
$var wire 1 I hi_sel $end
$var wire 32 J hi_out [31:0] $end
$var wire 32 K hi_in [31:0] $end
$var wire 1 L hi_en $end
$var wire 6 M func [5:0] $end
$var wire 1 N extend $end
$var wire 32 O data_2 [31:0] $end
$var wire 32 P data_1 [31:0] $end
$var wire 4 Q byteenable [3:0] $end
$var wire 32 R address [31:0] $end
$var wire 1 ' active $end
$var wire 1 S PC_write_cond $end
$var wire 1 T PC_write $end
$var wire 2 U PC_src [1:0] $end
$var wire 32 V PC_out [31:0] $end
$var wire 32 W PC_in [31:0] $end
$var wire 1 X IoD $end
$var wire 1 Y IR_write $end
$var wire 1 Z IR_sel $end
$var wire 32 [ ALUout_delay [31:0] $end
$var wire 32 \ ALUout [31:0] $end
$var wire 5 ] ALUop [4:0] $end
$var wire 32 ^ ALUlo [31:0] $end
$var wire 32 _ ALUhi [31:0] $end
$var wire 2 ` ALU_srcB [1:0] $end
$var wire 1 a ALU_srcA $end
$var wire 32 b ALU_inB [31:0] $end
$var wire 32 c ALU_inA [31:0] $end
$scope module A $end
$var wire 1 ( clk $end
$var wire 1 + reset $end
$var wire 32 d data_in [31:0] $end
$var reg 32 e data_out [31:0] $end
$var reg 32 f reg_val [31:0] $end
$upscope $end
$scope module ALUo $end
$var wire 1 ( clk $end
$var wire 1 + reset $end
$var wire 32 g data_in [31:0] $end
$var reg 32 h data_out [31:0] $end
$var reg 32 i reg_val [31:0] $end
$upscope $end
$scope module B $end
$var wire 1 ( clk $end
$var wire 1 + reset $end
$var wire 32 j data_in [31:0] $end
$var reg 32 k data_out [31:0] $end
$var reg 32 l reg_val [31:0] $end
$upscope $end
$scope module j_adrs $end
$var wire 32 m pc_val [31:0] $end
$var wire 26 n mem_address [25:0] $end
$var wire 32 o jump_address [31:0] $end
$upscope $end
$scope module mips_IoD $end
$var wire 1 X select $end
$var wire 32 p input_1 [31:0] $end
$var wire 32 q input_0 [31:0] $end
$var reg 32 r out [31:0] $end
$upscope $end
$scope module mips_alu $end
$var wire 5 s tmp_shift [4:0] $end
$var wire 5 t shift [4:0] $end
$var wire 32 u rt [31:0] $end
$var wire 32 v rs [31:0] $end
$var wire 32 w ALU_lo [31:0] $end
$var wire 32 x ALU_hi [31:0] $end
$var wire 5 y ALU_ctrl [4:0] $end
$var reg 32 z ALU_out [31:0] $end
$var reg 64 { tmp [63:0] $end
$upscope $end
$scope module mips_aluA_mux $end
$var wire 32 | input_1 [31:0] $end
$var wire 1 a select $end
$var wire 32 } input_0 [31:0] $end
$var reg 32 ~ out [31:0] $end
$upscope $end
$scope module mips_aluB_mux $end
$var wire 32 !" input_0 [31:0] $end
$var wire 32 "" input_1 [31:0] $end
$var wire 2 #" select [1:0] $end
$var wire 32 $" input_3 [31:0] $end
$var wire 32 %" input_2 [31:0] $end
$var reg 32 &" out [31:0] $end
$upscope $end
$scope module mips_control $end
$var wire 1 ( clk $end
$var wire 1 + reset $end
$var wire 1 , waitrequest $end
$var wire 5 '" rt [4:0] $end
$var wire 6 (" op [5:0] $end
$var wire 6 )" func [5:0] $end
$var wire 32 *" address [31:0] $end
$var reg 1 a ALU_srcA $end
$var reg 2 +" ALU_srcB [1:0] $end
$var reg 5 ," ALUop [4:0] $end
$var reg 1 Z IR_sel $end
$var reg 1 Y IR_write $end
$var reg 1 X IoD $end
$var reg 2 -" PC_src [1:0] $end
$var reg 1 T PC_write $end
$var reg 1 S PC_write_cond $end
$var reg 1 ' active $end
$var reg 1 N extend $end
$var reg 1 L hi_en $end
$var reg 1 I hi_sel $end
$var reg 2 ." instr_type [1:0] $end
$var reg 1 C lo_en $end
$var reg 1 @ lo_sel $end
$var reg 1 $ mem_read $end
$var reg 1 " mem_write $end
$var reg 2 /" reg_data_sel [1:0] $end
$var reg 2 0" reg_dest [1:0] $end
$var reg 1 4 reg_write $end
$var reg 3 1" state [2:0] $end
$upscope $end
$scope module mips_extend $end
$var wire 1 N zero_sign $end
$var wire 1 2" tmp $end
$var wire 16 3" in [15:0] $end
$var reg 32 4" out [31:0] $end
$upscope $end
$scope module mips_hi_reg $end
$var wire 1 ( clk $end
$var wire 1 L enable $end
$var wire 1 + reset $end
$var wire 32 5" data_in [31:0] $end
$var reg 32 6" data_out [31:0] $end
$var reg 32 7" reg_val [31:0] $end
$upscope $end
$scope module mips_hi_reg_mux $end
$var wire 32 8" input_0 [31:0] $end
$var wire 32 9" input_1 [31:0] $end
$var wire 1 I select $end
$var reg 32 :" out [31:0] $end
$upscope $end
$scope module mips_ir $end
$var wire 1 Y IRWrite $end
$var wire 1 Z IR_sel $end
$var wire 1 ( clk $end
$var wire 32 ;" mem_input [31:0] $end
$var wire 1 + reset $end
$var wire 5 <" t_shift [4:0] $end
$var wire 5 =" t_rt [4:0] $end
$var wire 5 >" t_rs [4:0] $end
$var wire 5 ?" t_rd [4:0] $end
$var wire 6 @" t_op [5:0] $end
$var wire 26 A" t_mem_address [25:0] $end
$var wire 16 B" t_i [15:0] $end
$var wire 6 C" t_func [5:0] $end
$var wire 5 D" m_shift [4:0] $end
$var wire 5 E" m_rt [4:0] $end
$var wire 5 F" m_rs [4:0] $end
$var wire 5 G" m_rd [4:0] $end
$var wire 6 H" m_op [5:0] $end
$var wire 26 I" m_mem_address [25:0] $end
$var wire 16 J" m_i [15:0] $end
$var wire 6 K" m_func [5:0] $end
$var reg 6 L" func [5:0] $end
$var reg 16 M" i [15:0] $end
$var reg 32 N" instr [31:0] $end
$var reg 26 O" mem_address [25:0] $end
$var reg 6 P" op [5:0] $end
$var reg 5 Q" rd [4:0] $end
$var reg 5 R" rs [4:0] $end
$var reg 5 S" rt [4:0] $end
$var reg 5 T" shift [4:0] $end
$upscope $end
$scope module mips_lo_reg $end
$var wire 1 ( clk $end
$var wire 1 C enable $end
$var wire 1 + reset $end
$var wire 32 U" data_in [31:0] $end
$var reg 32 V" data_out [31:0] $end
$var reg 32 W" reg_val [31:0] $end
$upscope $end
$scope module mips_lo_reg_mux $end
$var wire 32 X" input_0 [31:0] $end
$var wire 32 Y" input_1 [31:0] $end
$var wire 1 @ select $end
$var reg 32 Z" out [31:0] $end
$upscope $end
$scope module mips_mem_dec $end
$var wire 1 ( clk $end
$var wire 32 [" data_in [31:0] $end
$var wire 6 \" op [5:0] $end
$var wire 1 + reset $end
$var wire 32 ]" rt [31:0] $end
$var wire 8 ^" rt_byte3 [7:0] $end
$var wire 8 _" rt_byte2 [7:0] $end
$var wire 8 `" rt_byte1 [7:0] $end
$var wire 8 a" rt_byte0 [7:0] $end
$var wire 4 b" byteenable [3:0] $end
$var wire 1 c" byte3_msb $end
$var wire 8 d" byte3 [7:0] $end
$var wire 1 e" byte2_msb $end
$var wire 8 f" byte2 [7:0] $end
$var wire 1 g" byte1_msb $end
$var wire 8 h" byte1 [7:0] $end
$var wire 1 i" byte0_msb $end
$var wire 8 j" byte0 [7:0] $end
$var reg 4 k" be_signal [3:0] $end
$var reg 32 l" data_out [31:0] $end
$upscope $end
$scope module mips_out $end
$var wire 32 m" cpu_out [31:0] $end
$var wire 2 n" instr_type [1:0] $end
$var wire 6 o" op [5:0] $end
$var wire 32 p" mem_addr [31:0] $end
$var wire 4 q" byteenable [3:0] $end
$var wire 2 r" byte_idx [1:0] $end
$var reg 1 s" byte0 $end
$var reg 1 t" byte1 $end
$var reg 1 u" byte2 $end
$var reg 1 v" byte3 $end
$upscope $end
$scope module mips_pc $end
$var wire 1 ( clk $end
$var wire 2 w" instr_type [1:0] $end
$var wire 1 T pc_ctrl $end
$var wire 1 - pc_write_cond $end
$var wire 1 + reset $end
$var wire 1 , waitrequest $end
$var wire 32 x" nxt_pc_val [31:0] $end
$var reg 32 y" BoJ [31:0] $end
$var reg 1 z" BoJ_flag $end
$var reg 3 {" counter [2:0] $end
$var reg 32 |" cur_pc_val [31:0] $end
$var reg 32 }" pc_val [31:0] $end
$upscope $end
$scope module mips_pc_mux $end
$var wire 32 ~" input_0 [31:0] $end
$var wire 32 !# input_1 [31:0] $end
$var wire 32 "# input_2 [31:0] $end
$var wire 32 ## input_3 [31:0] $end
$var wire 2 $# select [1:0] $end
$var reg 32 %# out [31:0] $end
$upscope $end
$scope module mips_reg_data_in $end
$var wire 32 &# input_0 [31:0] $end
$var wire 32 '# input_1 [31:0] $end
$var wire 32 (# input_2 [31:0] $end
$var wire 32 )# input_3 [31:0] $end
$var wire 2 *# select [1:0] $end
$var reg 32 +# out [31:0] $end
$upscope $end
$scope module mips_reg_write_adr_mux $end
$var wire 5 ,# input_0 [4:0] $end
$var wire 5 -# input_1 [4:0] $end
$var wire 5 .# input_2 [4:0] $end
$var wire 2 /# select [1:0] $end
$var reg 5 0# out [4:0] $end
$upscope $end
$scope module mips_register $end
$var wire 1 4 Regwrite $end
$var wire 1 ( clk $end
$var wire 5 1# read_register_1 [4:0] $end
$var wire 5 2# read_register_2 [4:0] $end
$var wire 32 3# register_v0 [31:0] $end
$var wire 1 + reset $end
$var wire 32 4# write_data [31:0] $end
$var wire 5 5# write_register [4:0] $end
$var reg 32 6# a0 [31:0] $end
$var reg 32 7# a1 [31:0] $end
$var reg 32 8# a2 [31:0] $end
$var reg 32 9# a3 [31:0] $end
$var reg 32 :# at [31:0] $end
$var reg 32 ;# fp [31:0] $end
$var reg 32 <# gp [31:0] $end
$var reg 32 =# k0 [31:0] $end
$var reg 32 ># k1 [31:0] $end
$var reg 32 ?# ra [31:0] $end
$var reg 32 @# read_data_1 [31:0] $end
$var reg 32 A# read_data_2 [31:0] $end
$var reg 32 B# s0 [31:0] $end
$var reg 32 C# s1 [31:0] $end
$var reg 32 D# s2 [31:0] $end
$var reg 32 E# s3 [31:0] $end
$var reg 32 F# s4 [31:0] $end
$var reg 32 G# s5 [31:0] $end
$var reg 32 H# s6 [31:0] $end
$var reg 32 I# s7 [31:0] $end
$var reg 32 J# sp [31:0] $end
$var reg 32 K# t0 [31:0] $end
$var reg 32 L# t1 [31:0] $end
$var reg 32 M# t2 [31:0] $end
$var reg 32 N# t3 [31:0] $end
$var reg 32 O# t4 [31:0] $end
$var reg 32 P# t5 [31:0] $end
$var reg 32 Q# t6 [31:0] $end
$var reg 32 R# t7 [31:0] $end
$var reg 32 S# t8 [31:0] $end
$var reg 32 T# t9 [31:0] $end
$var reg 32 U# v0 [31:0] $end
$var reg 32 V# v1 [31:0] $end
$var reg 32 W# zero [31:0] $end
$upscope $end
$scope module mips_shift2 $end
$var wire 32 X# in [31:0] $end
$var wire 32 Y# out [31:0] $end
$upscope $end
$scope module mips_store $end
$var wire 32 Z# data_in [31:0] $end
$var wire 6 [# op [5:0] $end
$var reg 32 \# data_out [31:0] $end
$upscope $end
$upscope $end
$scope begin $unm_blk_4 $end
$var integer 32 ]# i [31:0] $end
$upscope $end
$upscope $end
$enddefinitions $end
#0
$dumpvars
b10101 ]#
bx \#
b0 [#
b0 Z#
b0 Y#
b0 X#
bx W#
bx V#
bx U#
bx T#
bx S#
bx R#
bx Q#
bx P#
bx O#
bx N#
bx M#
bx L#
bx K#
bx J#
bx I#
bx H#
bx G#
bx F#
bx E#
bx D#
bx C#
bx B#
b0 A#
b0 @#
bx ?#
bx >#
bx =#
bx <#
bx ;#
bx :#
bx 9#
bx 8#
bx 7#
bx 6#
b0 5#
b10111111110000000000000000000100 4#
bx 3#
b0 2#
b0 1#
b0 0#
b0 /#
b11111 .#
b0 -#
b0 ,#
b10111111110000000000000000000100 +#
b0 *#
b0 )#
b0 (#
bx '#
b10111111110000000000000000000100 &#
b10111111110000000000000000000100 %#
b1 $#
b0 ##
b10110000000000000000000000000000 "#
b10111111110000000000000000000100 !#
b0 ~"
bx }"
b10111111110000000000000000000000 |"
bx {"
xz"
bx y"
b10111111110000000000000000000100 x"
b0 w"
1v"
1u"
1t"
1s"
b0 r"
b1111 q"
b10111111110000000000000000000000 p"
b0 o"
b0 n"
b10111111110000000000000000000000 m"
bx l"
bx k"
bx j"
xi"
bx h"
xg"
bx f"
xe"
bx d"
xc"
b1111 b"
b0 a"
b0 `"
b0 _"
b0 ^"
b0 ]"
b0 \"
bx ["
bx Z"
b10111111110000000000000000000100 Y"
bx X"
bx W"
b0 V"
bx U"
b0 T"
b0 S"
b0 R"
b0 Q"
b0 P"
b0 O"
bx N"
b0 M"
b0 L"
bx K"
bx J"
bx I"
bx H"
bx G"
bx F"
bx E"
bx D"
bx C"
bx B"
bx A"
bx @"
bx ?"
bx >"
bx ="
bx <"
bx ;"
bx :"
b10111111110000000000000000000100 9"
bx 8"
bx 7"
b0 6"
bx 5"
b0 4"
b0 3"
02"
b0 1"
b0 0"
b0 /"
b0 ."
b1 -"
b0 ,"
b1 +"
b10111111110000000000000000000000 *"
b0 )"
b0 ("
b0 '"
b100 &"
b0 %"
b0 $"
b1 #"
b100 ""
b0 !"
b10111111110000000000000000000000 ~
b10111111110000000000000000000000 }
b0 |
bx {
b10111111110000000000000000000100 z
b0 y
bx x
bx w
b10111111110000000000000000000000 v
b100 u
b0 t
b100 s
b10111111110000000000000000000000 r
b10111111110000000000000000000000 q
b10111111110000000000000000000100 p
b10110000000000000000000000000000 o
b0 n
b10111111110000000000000000000000 m
bx l
b0 k
b0 j
bx i
b0 h
b10111111110000000000000000000100 g
bx f
b0 e
b0 d
b10111111110000000000000000000000 c
b100 b
0a
b1 `
bx _
bx ^
b0 ]
b10111111110000000000000000000100 \
b0 [
0Z
0Y
0X
b10111111110000000000000000000100 W
b10111111110000000000000000000000 V
b1 U
1T
0S
b10111111110000000000000000000000 R
b1111 Q
b0 P
b0 O
0N
b0 M
0L
bx K
b0 J
0I
b0 H
b0 G
b0 F
b0 E
b10110000000000000000000000000000 D
0C
bx B
b0 A
0@
b0 ?
bx >
b10111111110000000000000000000000 =
b0 <
b0 ;
b0 :
b0 9
b10111111110000000000000000000100 8
b0 7
b0 6
b0 5
04
bx 3
b0 2
b0 1
b0 0
bx /
bx .
0-
0,
1+
bx *
b0 )
0(
0'
b10111111110000000000000000000000 &
b1111 %
1$
bx #
0"
bx !
$end
#10
b0 @"
b0 >"
b0 ="
b0 ?"
b0 <"
b0 C"
b0 B"
b0 A"
b1111 H"
b0 F"
b1000 E"
b10111 G"
b11111 D"
b0 K"
b1011111111000000 J"
b10001011111111000000 I"
b111100 j"
b1000 h"
b10111111 f"
b11000000 d"
0i"
0g"
1e"
1c"
b0 N"
b0 ?#
b0 ;#
b0 J#
b0 <#
b0 >#
b0 =#
b0 T#
b0 S#
b0 I#
b0 H#
b0 G#
b0 F#
b0 E#
b0 D#
b0 C#
b0 B#
b0 R#
b0 Q#
b0 P#
b0 O#
b0 N#
b0 M#
b0 L#
b0 K#
b0 9#
b0 8#
b0 7#
b0 6#
b0 V#
b0 #
b0 3
b0 3#
b0 U#
b0 :#
b0 W#
b0 f
b0 l
b0 k"
b0 W"
b0 7"
b0 i
b0 {"
b0 y"
b10111111110000000000000000000000 }"
1'
b111100000010001011111111000000 *
b111100000010001011111111000000 .
b111100000010001011111111000000 ;"
b111100000010001011111111000000 ["
1(
#20
0(
0+
#30
b10111111101111101111111100000100 W
b10111111101111101111111100000100 x"
b10111111101111101111111100000100 %#
b10111111101111101111111100000100 8
b10111111101111101111111100000100 +#
b10111111101111101111111100000100 4#
b10111111101111101111111100000100 \
b10111111101111101111111100000100 g
b10111111101111101111111100000100 p
b10111111101111101111111100000100 z
b10111111101111101111111100000100 9"
b10111111101111101111111100000100 Y"
b10111111101111101111111100000100 !#
b10111111101111101111111100000100 &#
b11111111111111101111111100000000 F
b11111111111111101111111100000000 $"
b11111111111111101111111100000000 Y#
b0 s
12"
b11111111111111111011111111000000 G
b11111111111111111011111111000000 %"
b11111111111111111011111111000000 4"
b11111111111111111011111111000000 X#
b1000 7
b1000 0#
b1000 5#
b111100000010001011111111000000 >
b111100000010001011111111000000 l"
b111100000010001011111111000000 '#
b1 )
b11111111111111101111111100000000 b
b11111111111111101111111100000000 u
b11111111111111101111111100000000 &"
b10110000001000101111111100000000 D
b10110000001000101111111100000000 o
b10110000001000101111111100000000 "#
b10001011111111000000 ?
b10001011111111000000 n
b10001011111111000000 O"
b1011111111000000 H
b1011111111000000 3"
b1011111111000000 M"
b11111 0
b11111 t
b11111 T"
b1000 1
b1000 '"
b1000 S"
b1000 ,#
b1000 2#
b10111 ;
b10111 Q"
b10111 -#
b1111 <
b1111 ("
b1111 P"
b1111 \"
b1111 o"
b1111 [#
b10111111110000000000000000000100 &
b10111111110000000000000000000100 R
b10111111110000000000000000000100 *"
b10111111110000000000000000000100 p"
b10111111110000000000000000000100 =
b10111111110000000000000000000100 r
b10111111110000000000000000000100 m"
b10111111110000000000000000000100 c
b10111111110000000000000000000100 v
b10111111110000000000000000000100 ~
0T
b11 `
b11 #"
b11 +"
1Z
1Y
0$
b10111111110000000000000000000100 V
b10111111110000000000000000000100 m
b10111111110000000000000000000100 q
b10111111110000000000000000000100 }
b10111111110000000000000000000100 |"
b10111111110000000000000000000100 [
b10111111110000000000000000000100 h
b10111111110000000000000000000100 ~"
b1 1"
b10111111110000000000000000000100 }"
b10111111110000000000000000000100 i
b1111 k"
1(
#40
0(
#50
b10111111110000000000000000000000 8
b10111111110000000000000000000000 +#
b10111111110000000000000000000000 4#
b11111111111111111011111111000000 b
b11111111111111111011111111000000 u
b11111111111111111011111111000000 &"
b10111111110000000000000000000000 \
b10111111110000000000000000000000 g
b10111111110000000000000000000000 p
b10111111110000000000000000000000 z
b10111111110000000000000000000000 9"
b10111111110000000000000000000000 Y"
b10111111110000000000000000000000 !#
b10111111110000000000000000000000 &#
b0 c
b0 v
b0 ~
b1111 @"
b1000 ="
b10111 ?"
b11111 <"
b1011111111000000 B"
b10001011111111000000 A"
b10111111101111101111111100000100 [
b10111111101111101111111100000100 h
b10111111101111101111111100000100 ~"
b10 `
b10 #"
b10 +"
b11001 ]
b11001 y
b11001 ,"
1a
b0 U
b0 -"
b0 $#
0Z
0Y
14
b111100000010001011111111000000 N"
b10111111101111101111111100000100 i
b10 1"
1(
#60
0(
#70
b10111111110000000000000000001000 8
b10111111110000000000000000001000 +#
b10111111110000000000000000001000 4#
b100 s
b10111111110000000000000000001000 \
b10111111110000000000000000001000 g
b10111111110000000000000000001000 p
b10111111110000000000000000001000 z
b10111111110000000000000000001000 9"
b10111111110000000000000000001000 Y"
b10111111110000000000000000001000 !#
b10111111110000000000000000001000 &#
b100 b
b100 u
b100 &"
b10111111110000000000000000000100 c
b10111111110000000000000000000100 v
b10111111110000000000000000000100 ~
b10111111110000000000000000001000 W
b10111111110000000000000000001000 x"
b10111111110000000000000000001000 %#
1T
b1 U
b1 -"
b1 $#
b0 ]
b0 y
b0 ,"
b1 `
b1 #"
b1 +"
0a
04
1$
b10111111110000000000000000000000 [
b10111111110000000000000000000000 h
b10111111110000000000000000000000 ~"
b10111111110000000000000000000000 O
b10111111110000000000000000000000 j
b10111111110000000000000000000000 A#
b0 1"
b10111111110000000000000000000000 i
b10111111110000000000000000000000 K#
1(
#80
0(
#90
b100000 F
b100000 $"
b100000 Y#
b10111111110000000000000000101000 W
b10111111110000000000000000101000 x"
b10111111110000000000000000101000 %#
b10111111110000000000000000101000 8
b10111111110000000000000000101000 +#
b10111111110000000000000000101000 4#
b10 )
b0 s
02"
b1000 G
b1000 %"
b1000 4"
b1000 X#
b10111111110000000000000000101000 \
b10111111110000000000000000101000 g
b10111111110000000000000000101000 p
b10111111110000000000000000101000 z
b10111111110000000000000000101000 9"
b10111111110000000000000000101000 Y"
b10111111110000000000000000101000 !#
b10111111110000000000000000101000 &#
b0 O
b0 j
b0 A#
b0 7
b0 0#
b0 5#
b10111111 a"
b11000000 `"
b10111111110000000000000000001000 &
b10111111110000000000000000001000 R
b10111111110000000000000000001000 *"
b10111111110000000000000000001000 p"
b10111111110000000000000000001000 =
b10111111110000000000000000001000 r
b10111111110000000000000000001000 m"
b10111111110000000000000000001000 c
b10111111110000000000000000001000 v
b10111111110000000000000000001000 ~
b100000 b
b100000 u
b100000 &"
b10110000000000000000000000100000 D
b10110000000000000000000000100000 o
b10110000000000000000000000100000 "#
b1000 ?
b1000 n
b1000 O"
b1000 H
b1000 3"
b1000 M"
b1000 M
b1000 )"
b1000 L"
b0 0
b0 t
b0 T"
b0 1
b0 '"
b0 S"
b0 ,#
b0 2#
b0 ;
b0 Q"
b0 -#
b0 <
b0 ("
b0 P"
b0 \"
b0 o"
b0 [#
b1000 >
b1000 l"
b1000 '#
b10111111110000000000000000000000 9
b10111111110000000000000000000000 k
b10111111110000000000000000000000 !"
b10111111110000000000000000000000 ]"
b10111111110000000000000000000000 Z#
b10111111110000000000000000001000 [
b10111111110000000000000000001000 h
b10111111110000000000000000001000 ~"
b10111111110000000000000000001000 V
b10111111110000000000000000001000 m
b10111111110000000000000000001000 q
b10111111110000000000000000001000 }
b10111111110000000000000000001000 |"
0T
b11 `
b11 #"
b11 +"
1Z
1Y
0$
b0 H"
b0 E"
b0 G"
b0 D"
b1000 K"
b1000 J"
b1000 I"
b0 j"
b0 h"
b0 f"
b1000 d"
0e"
0c"
b10111111110000000000000000000000 l
b10111111110000000000000000001000 i
b10111111110000000000000000001000 }"
b1 1"
b1000 *
b1000 .
b1000 ;"
b1000 ["
1(
#100
0(
#110
b1 8
b1 +#
b1 4#
b100 s
1-
b1 \
b1 g
b1 p
b1 z
b1 9"
b1 Y"
b1 !#
b1 &#
b0 W
b0 x"
b0 %#
b100 b
b100 u
b100 &"
b0 a"
b0 `"
1S
1T
b11000 ]
b11000 y
b11000 ,"
b1 5
b1 0"
b1 /#
b1 `
b1 #"
b1 +"
0a
b11 U
b11 -"
b11 $#
0Z
0Y
04
b10111111110000000000000000101000 [
b10111111110000000000000000101000 h
b10111111110000000000000000101000 ~"
b0 9
b0 k
b0 !"
b0 ]"
b0 Z#
b0 @"
b0 ="
b0 ?"
b0 <"
b1000 C"
b1000 B"
b1000 A"
b10 1"
b10111111110000000000000000101000 i
b0 l
b1000 N"
1(
#120
0(
#130
b10111111110000000000000000001100 8
b10111111110000000000000000001100 +#
b10111111110000000000000000001100 4#
0-
b10111111110000000000000000001100 W
b10111111110000000000000000001100 x"
b10111111110000000000000000001100 %#
b10111111110000000000000000001100 \
b10111111110000000000000000001100 g
b10111111110000000000000000001100 p
b10111111110000000000000000001100 z
b10111111110000000000000000001100 9"
b10111111110000000000000000001100 Y"
b10111111110000000000000000001100 !#
b10111111110000000000000000001100 &#
b1 [
b1 h
b1 ~"
0S
b1 U
b1 -"
b1 $#
b0 ]
b0 y
b0 ,"
b0 5
b0 0"
b0 /#
1$
b1 i
1z"
b0 1"
1(
#140
0(
#150
b10110000 F
b10110000 $"
b10110000 Y#
1v"
1u"
1t"
b1111 %
b1111 Q
b1111 b"
b1111 q"
1s"
b10111111110000000000000010111100 8
b10111111110000000000000010111100 +#
b10111111110000000000000010111100 4#
b10000 s
b10111111110000000000000010111100 W
b10111111110000000000000010111100 x"
b10111111110000000000000010111100 %#
b101100 G
b101100 %"
b101100 4"
b101100 X#
b10 7
b10 0#
b10 5#
b10111111110000000000000000000000 P
b10111111110000000000000000000000 d
b10111111110000000000000000000000 @#
b10 E
b10 ."
b10 n"
b10 w"
b11 )
b10111111110000000000000010111100 \
b10111111110000000000000010111100 g
b10111111110000000000000010111100 p
b10111111110000000000000010111100 z
b10111111110000000000000010111100 9"
b10111111110000000000000010111100 Y"
b10111111110000000000000010111100 !#
b10111111110000000000000010111100 &#
b10001001000000100000000000101100 >
b10001001000000100000000000101100 l"
b10001001000000100000000000101100 '#
b10110000 b
b10110000 u
b10110000 &"
b10110100000010000000000010110000 D
b10110100000010000000000010110000 o
b10110100000010000000000010110000 "#
b1000000100000000000101100 ?
b1000000100000000000101100 n
b1000000100000000000101100 O"
b101100 H
b101100 3"
b101100 M"
b101100 M
b101100 )"
b101100 L"
b10 1
b10 '"
b10 S"
b10 ,#
b10 2#
b1000 2
b1000 R"
b1000 1#
b100010 <
b100010 ("
b100010 P"
b100010 \"
b100010 o"
b100010 [#
b10111111110000000000000000001100 &
b10111111110000000000000000001100 R
b10111111110000000000000000001100 *"
b10111111110000000000000000001100 p"
b10111111110000000000000000001100 =
b10111111110000000000000000001100 r
b10111111110000000000000000001100 m"
b10111111110000000000000000001100 c
b10111111110000000000000000001100 v
b10111111110000000000000000001100 ~
b100010 H"
b1000 F"
b10 E"
b101100 K"
b101100 J"
b1000000100000000000101100 I"
b10001001 j"
b10 h"
b101100 d"
1i"
0T
b11 `
b11 #"
b11 +"
1Z
1Y
0$
b10111111110000000000000000001100 V
b10111111110000000000000000001100 m
b10111111110000000000000000001100 q
b10111111110000000000000000001100 }
b10111111110000000000000000001100 |"
b10111111110000000000000000001100 [
b10111111110000000000000000001100 h
b10111111110000000000000000001100 ~"
b10001001000000100000000000101100 *
b10001001000000100000000000101100 .
b10001001000000100000000000101100 ;"
b10001001000000100000000000101100 ["
b1 1"
b1 {"
b10111111110000000000000000001100 }"
b10111111110000000000000000001100 i
1(
#160
0(
#170
b10111111110000000000000000101100 8
b10111111110000000000000000101100 +#
b10111111110000000000000000101100 4#
b1011 )
b1100 s
b10111111110000000000000000101100 \
b10111111110000000000000000101100 g
b10111111110000000000000000101100 p
b10111111110000000000000000101100 z
b10111111110000000000000000101100 9"
b10111111110000000000000000101100 Y"
b10111111110000000000000000101100 !#
b10111111110000000000000000101100 &#
b10111111110000000000000000101100 &
b10111111110000000000000000101100 R
b10111111110000000000000000101100 *"
b10111111110000000000000000101100 p"
b10111111110000000000000000101100 =
b10111111110000000000000000101100 r
b10111111110000000000000000101100 m"
b101100 b
b101100 u
b101100 &"
b10111111110000000000000000000000 c
b10111111110000000000000000000000 v
b10111111110000000000000000000000 ~
b100010 @"
b1000 >"
b10 ="
b101100 C"
b101100 B"
b1000000100000000000101100 A"
b10111111110000000000000000000000 :
b10111111110000000000000000000000 e
b10111111110000000000000000000000 |
b10111111110000000000000000000000 ##
b10111111110000000000000010111100 [
b10111111110000000000000010111100 h
b10111111110000000000000010111100 ~"
1X
1$
b10 `
b10 #"
b10 +"
1a
b0 U
b0 -"
b0 $#
0Z
0Y
04
b10001001000000100000000000101100 N"
b10111111110000000000000000000000 f
b10111111110000000000000010111100 i
b10 {"
b10 1"
1(
#180
0(
#190
b11 )
b0 s
b10111111110000000000000000001100 \
b10111111110000000000000000001100 g
b10111111110000000000000000001100 p
b10111111110000000000000000001100 z
b10111111110000000000000000001100 9"
b10111111110000000000000000001100 Y"
b10111111110000000000000000001100 !#
b10111111110000000000000000001100 &#
b11111111111111111111111111111111 >
b11111111111111111111111111111111 l"
b11111111111111111111111111111111 '#
b10111111110000000000000000001100 &
b10111111110000000000000000001100 R
b10111111110000000000000000001100 *"
b10111111110000000000000000001100 p"
b10111111110000000000000000001100 =
b10111111110000000000000000001100 r
b10111111110000000000000000001100 m"
b0 b
b0 u
b0 &"
b10111111110000000000000000001100 c
b10111111110000000000000000001100 v
b10111111110000000000000000001100 ~
b11111111111111111111111111111111 8
b11111111111111111111111111111111 +#
b11111111111111111111111111111111 4#
b10111111110000000000000000101100 W
b10111111110000000000000000101100 x"
b10111111110000000000000000101100 %#
b111111 H"
b11111 F"
b11111 E"
b11111 G"
b11111 D"
b111111 K"
b1111111111111111 J"
b11111111111111111111111111 I"
b11111111 j"
b11111111 h"
b11111111 f"
b11111111 d"
1g"
1e"
1c"
0X
b0 `
b0 #"
b0 +"
0a
14
b1 6
b1 /"
b1 *#
0$
b10111111110000000000000000101100 [
b10111111110000000000000000101100 h
b10111111110000000000000000101100 ~"
b11111111111111111111111111111111 *
b11111111111111111111111111111111 .
b11111111111111111111111111111111 ;"
b11111111111111111111111111111111 ["
b11 1"
b11 {"
b10111111110000000000000000101100 i
1(
#200
0(
