Floro_Stuff/MIPS/mips_cpu_test.vcd
$date
	Thu Dec 16 15:26:47 2021
$end
$version
	Icarus Verilog
$end
$timescale
	1s
$end
$scope module mips_cpu_test $end
$var wire 32 ! writedata [31:0] $end
$var wire 1 " write $end
$var wire 32 # register_v0 [31:0] $end
$var wire 1 $ read $end
$var wire 4 % byteenable [3:0] $end
$var wire 32 & address [31:0] $end
$var wire 1 ' active $end
$var reg 1 ( clk $end
$var reg 5 ) mappedaddress [4:0] $end
$var reg 32 * readdata [31:0] $end
$var reg 1 + reset $end
$var reg 1 , waitrequest $end
$scope module dut $end
$var wire 1 - PC_write_condcomb $end
$var wire 1 ( clk $end
$var wire 32 . readdata [31:0] $end
$var wire 1 + reset $end
$var wire 1 , waitrequest $end
$var wire 32 / writedata [31:0] $end
$var wire 1 " write $end
$var wire 5 0 shift [4:0] $end
$var wire 5 1 rt [4:0] $end
$var wire 5 2 rs [4:0] $end
$var wire 32 3 register_v0 [31:0] $end
$var wire 1 4 reg_write $end
$var wire 2 5 reg_dest [1:0] $end
$var wire 2 6 reg_data_sel [1:0] $end
$var wire 5 7 reg_data_dest [4:0] $end
$var wire 32 8 reg_data [31:0] $end
$var wire 32 9 reg_B [31:0] $end
$var wire 32 : reg_A [31:0] $end
$var wire 1 $ read $end
$var wire 5 ; rd [4:0] $end
$var wire 6 < op [5:0] $end
$var wire 32 = mem_paddr [31:0] $end
$var wire 32 > mem_data [31:0] $end
$var wire 26 ? mem_address [25:0] $end
$var wire 1 @ lo_sel $end
$var wire 32 A lo_out [31:0] $end
$var wire 32 B lo_in [31:0] $end
$var wire 1 C lo_en $end
$var wire 32 D jumpaddress [31:0] $end
$var wire 2 E instr_type [1:0] $end
$var wire 32 F i_ex_sl [31:0] $end
$var wire 32 G i_ex [31:0] $end
$var wire 16 H i [15:0] $end
$var wire 1 I hi_sel $end
$var wire 32 J hi_out [31:0] $end
$var wire 32 K hi_in [31:0] $end
$var wire 1 L hi_en $end
$var wire 6 M func [5:0] $end
$var wire 1 N extend $end
$var wire 32 O data_2 [31:0] $end
$var wire 32 P data_1 [31:0] $end
$var wire 4 Q byteenable [3:0] $end
$var wire 1 R branch $end
$var wire 32 S address [31:0] $end
$var wire 1 ' active $end
$var wire 1 T PC_write_cond $end
$var wire 1 U PC_write $end
$var wire 3 V PC_src [2:0] $end
$var wire 32 W PC_out [31:0] $end
$var wire 32 X PC_in [31:0] $end
$var wire 1 Y IoD $end
$var wire 1 Z IR_write $end
$var wire 1 [ IR_sel $end
$var wire 1 \ ALUreg_en $end
$var wire 32 ] ALUout_delay [31:0] $end
$var wire 32 ^ ALUout_branch [31:0] $end
$var wire 32 _ ALUout [31:0] $end
$var wire 5 ` ALUop [4:0] $end
$var wire 32 a ALUlo [31:0] $end
$var wire 32 b ALUhi [31:0] $end
$var wire 2 c ALU_srcB [1:0] $end
$var wire 1 d ALU_srcA $end
$var wire 32 e ALU_inB [31:0] $end
$var wire 32 f ALU_inA [31:0] $end
$var reg 1 g PC_write_comb $end
$scope module A $end
$var wire 1 ( clk $end
$var wire 1 + reset $end
$var wire 32 h data_in [31:0] $end
$var reg 32 i data_out [31:0] $end
$var reg 32 j reg_val [31:0] $end
$upscope $end
$scope module ALUbranch $end
$var wire 1 ( clk $end
$var wire 1 + reset $end
$var wire 32 k data_in [31:0] $end
$var reg 32 l data_out [31:0] $end
$var reg 32 m reg_val [31:0] $end
$upscope $end
$scope module ALUo $end
$var wire 1 ( clk $end
$var wire 1 + reset $end
$var wire 32 n data_in [31:0] $end
$var wire 1 \ ALUreg_en $end
$var reg 32 o data_out [31:0] $end
$var reg 32 p reg_val [31:0] $end
$upscope $end
$scope module B $end
$var wire 1 ( clk $end
$var wire 1 + reset $end
$var wire 32 q data_in [31:0] $end
$var reg 32 r data_out [31:0] $end
$var reg 32 s reg_val [31:0] $end
$upscope $end
$scope module j_adrs $end
$var wire 32 t pc_val [31:0] $end
$var wire 26 u mem_address [25:0] $end
$var wire 32 v jump_address [31:0] $end
$upscope $end
$scope module mips_IoD $end
$var wire 1 Y select $end
$var wire 32 w input_1 [31:0] $end
$var wire 32 x input_0 [31:0] $end
$var reg 32 y out [31:0] $end
$upscope $end
$scope module mips_alu $end
$var wire 5 z tmp_shift [4:0] $end
$var wire 5 { shift [4:0] $end
$var wire 32 | rt [31:0] $end
$var wire 32 } rs [31:0] $end
$var wire 32 ~ ALU_lo [31:0] $end
$var wire 32 !" ALU_hi [31:0] $end
$var wire 5 "" ALU_ctrl [4:0] $end
$var reg 32 #" ALU_out [31:0] $end
$var reg 64 $" tmp [63:0] $end
$upscope $end
$scope module mips_aluA_mux $end
$var wire 32 %" input_1 [31:0] $end
$var wire 1 d select $end
$var wire 32 &" input_0 [31:0] $end
$var reg 32 '" out [31:0] $end
$upscope $end
$scope module mips_aluB_mux $end
$var wire 32 (" input_0 [31:0] $end
$var wire 32 )" input_1 [31:0] $end
$var wire 2 *" select [1:0] $end
$var wire 32 +" input_3 [31:0] $end
$var wire 32 ," input_2 [31:0] $end
$var reg 32 -" out [31:0] $end
$upscope $end
$scope module mips_control $end
$var wire 1 ( clk $end
$var wire 1 + reset $end
$var wire 1 , waitrequest $end
$var wire 5 ." rt [4:0] $end
$var wire 6 /" op [5:0] $end
$var wire 6 0" func [5:0] $end
$var wire 32 1" address [31:0] $end
$var reg 1 d ALU_srcA $end
$var reg 2 2" ALU_srcB [1:0] $end
$var reg 5 3" ALUop [4:0] $end
$var reg 1 \ ALUreg_en $end
$var reg 1 [ IR_sel $end
$var reg 1 Z IR_write $end
$var reg 1 Y IoD $end
$var reg 3 4" PC_src [2:0] $end
$var reg 1 U PC_write $end
$var reg 1 T PC_write_cond $end
$var reg 1 ' active $end
$var reg 1 R branch $end
$var reg 1 N extend $end
$var reg 1 L hi_en $end
$var reg 1 I hi_sel $end
$var reg 2 5" instr_type [1:0] $end
$var reg 1 C lo_en $end
$var reg 1 @ lo_sel $end
$var reg 1 $ mem_read $end
$var reg 1 " mem_write $end
$var reg 2 6" reg_data_sel [1:0] $end
$var reg 2 7" reg_dest [1:0] $end
$var reg 1 4 reg_write $end
$var reg 3 8" state [2:0] $end
$upscope $end
$scope module mips_extend $end
$var wire 1 N zero_sign $end
$var wire 1 9" tmp $end
$var wire 16 :" in [15:0] $end
$var reg 32 ;" out [31:0] $end
$upscope $end
$scope module mips_hi_reg $end
$var wire 1 ( clk $end
$var wire 1 L enable $end
$var wire 1 + reset $end
$var wire 32 <" data_in [31:0] $end
$var reg 32 =" data_out [31:0] $end
$var reg 32 >" reg_val [31:0] $end
$upscope $end
$scope module mips_hi_reg_mux $end
$var wire 32 ?" input_0 [31:0] $end
$var wire 32 @" input_1 [31:0] $end
$var wire 1 I select $end
$var reg 32 A" out [31:0] $end
$upscope $end
$scope module mips_ir $end
$var wire 1 Z IRWrite $end
$var wire 1 [ IR_sel $end
$var wire 1 ( clk $end
$var wire 32 B" mem_input [31:0] $end
$var wire 1 + reset $end
$var wire 5 C" t_shift [4:0] $end
$var wire 5 D" t_rt [4:0] $end
$var wire 5 E" t_rs [4:0] $end
$var wire 5 F" t_rd [4:0] $end
$var wire 6 G" t_op [5:0] $end
$var wire 26 H" t_mem_address [25:0] $end
$var wire 16 I" t_i [15:0] $end
$var wire 6 J" t_func [5:0] $end
$var wire 5 K" m_shift [4:0] $end
$var wire 5 L" m_rt [4:0] $end
$var wire 5 M" m_rs [4:0] $end
$var wire 5 N" m_rd [4:0] $end
$var wire 6 O" m_op [5:0] $end
$var wire 26 P" m_mem_address [25:0] $end
$var wire 16 Q" m_i [15:0] $end
$var wire 6 R" m_func [5:0] $end
$var reg 6 S" func [5:0] $end
$var reg 16 T" i [15:0] $end
$var reg 32 U" instr [31:0] $end
$var reg 26 V" mem_address [25:0] $end
$var reg 6 W" op [5:0] $end
$var reg 5 X" rd [4:0] $end
$var reg 5 Y" rs [4:0] $end
$var reg 5 Z" rt [4:0] $end
$var reg 5 [" shift [4:0] $end
$upscope $end
$scope module mips_lo_reg $end
$var wire 1 ( clk $end
$var wire 1 C enable $end
$var wire 1 + reset $end
$var wire 32 \" data_in [31:0] $end
$var reg 32 ]" data_out [31:0] $end
$var reg 32 ^" reg_val [31:0] $end
$upscope $end
$scope module mips_lo_reg_mux $end
$var wire 32 _" input_0 [31:0] $end
$var wire 32 `" input_1 [31:0] $end
$var wire 1 @ select $end
$var reg 32 a" out [31:0] $end
$upscope $end
$scope module mips_mem_dec $end
$var wire 1 ( clk $end
$var wire 32 b" data_in [31:0] $end
$var wire 6 c" op [5:0] $end
$var wire 1 + reset $end
$var wire 32 d" rt [31:0] $end
$var wire 8 e" rt_byte3 [7:0] $end
$var wire 8 f" rt_byte2 [7:0] $end
$var wire 8 g" rt_byte1 [7:0] $end
$var wire 8 h" rt_byte0 [7:0] $end
$var wire 4 i" byteenable [3:0] $end
$var wire 1 j" byte3_msb $end
$var wire 8 k" byte3 [7:0] $end
$var wire 1 l" byte2_msb $end
$var wire 8 m" byte2 [7:0] $end
$var wire 1 n" byte1_msb $end
$var wire 8 o" byte1 [7:0] $end
$var wire 1 p" byte0_msb $end
$var wire 8 q" byte0 [7:0] $end
$var reg 4 r" be_signal [3:0] $end
$var reg 32 s" data_out [31:0] $end
$upscope $end
$scope module mips_out $end
$var wire 32 t" cpu_out [31:0] $end
$var wire 2 u" instr_type [1:0] $end
$var wire 6 v" op [5:0] $end
$var wire 32 w" mem_addr [31:0] $end
$var wire 4 x" byteenable [3:0] $end
$var wire 2 y" byte_idx [1:0] $end
$var reg 1 z" byte0 $end
$var reg 1 {" byte1 $end
$var reg 1 |" byte2 $end
$var reg 1 }" byte3 $end
$upscope $end
$scope module mips_pc $end
$var wire 1 ( clk $end
$var wire 2 ~" instr_type [1:0] $end
$var wire 1 g pc_ctrl $end
$var wire 1 - pc_write_cond $end
$var wire 1 + reset $end
$var wire 1 , waitrequest $end
$var wire 32 !# nxt_pc_val [31:0] $end
$var reg 32 "# BoJ [31:0] $end
$var reg 1 ## BoJ_flag $end
$var reg 3 $# counter [2:0] $end
$var reg 32 %# cur_pc_val [31:0] $end
$var reg 32 &# pc_val [31:0] $end
$upscope $end
$scope module mips_pc_mux $end
$var wire 32 '# input_0 [31:0] $end
$var wire 32 (# input_1 [31:0] $end
$var wire 32 )# input_2 [31:0] $end
$var wire 32 *# input_3 [31:0] $end
$var wire 32 +# input_4 [31:0] $end
$var wire 3 ,# select [2:0] $end
$var reg 32 -# out [31:0] $end
$upscope $end
$scope module mips_reg_data_in $end
$var wire 32 .# input_0 [31:0] $end
$var wire 32 /# input_1 [31:0] $end
$var wire 32 0# input_2 [31:0] $end
$var wire 32 1# input_3 [31:0] $end
$var wire 2 2# select [1:0] $end
$var reg 32 3# out [31:0] $end
$upscope $end
$scope module mips_reg_write_adr_mux $end
$var wire 5 4# input_0 [4:0] $end
$var wire 5 5# input_1 [4:0] $end
$var wire 5 6# input_2 [4:0] $end
$var wire 2 7# select [1:0] $end
$var reg 5 8# out [4:0] $end
$upscope $end
$scope module mips_register $end
$var wire 1 4 Regwrite $end
$var wire 1 ( clk $end
$var wire 5 9# read_register_1 [4:0] $end
$var wire 5 :# read_register_2 [4:0] $end
$var wire 32 ;# register_v0 [31:0] $end
$var wire 1 + reset $end
$var wire 32 <# write_data [31:0] $end
$var wire 5 =# write_register [4:0] $end
$var reg 32 ># a0 [31:0] $end
$var reg 32 ?# a1 [31:0] $end
$var reg 32 @# a2 [31:0] $end
$var reg 32 A# a3 [31:0] $end
$var reg 32 B# at [31:0] $end
$var reg 32 C# fp [31:0] $end
$var reg 32 D# gp [31:0] $end
$var reg 32 E# k0 [31:0] $end
$var reg 32 F# k1 [31:0] $end
$var reg 32 G# ra [31:0] $end
$var reg 32 H# read_data_1 [31:0] $end
$var reg 32 I# read_data_2 [31:0] $end
$var reg 32 J# s0 [31:0] $end
$var reg 32 K# s1 [31:0] $end
$var reg 32 L# s2 [31:0] $end
$var reg 32 M# s3 [31:0] $end
$var reg 32 N# s4 [31:0] $end
$var reg 32 O# s5 [31:0] $end
$var reg 32 P# s6 [31:0] $end
$var reg 32 Q# s7 [31:0] $end
$var reg 32 R# sp [31:0] $end
$var reg 32 S# t0 [31:0] $end
$var reg 32 T# t1 [31:0] $end
$var reg 32 U# t2 [31:0] $end
$var reg 32 V# t3 [31:0] $end
$var reg 32 W# t4 [31:0] $end
$var reg 32 X# t5 [31:0] $end
$var reg 32 Y# t6 [31:0] $end
$var reg 32 Z# t7 [31:0] $end
$var reg 32 [# t8 [31:0] $end
$var reg 32 \# t9 [31:0] $end
$var reg 32 ]# v0 [31:0] $end
$var reg 32 ^# v1 [31:0] $end
$var reg 32 _# zero [31:0] $end
$upscope $end
$scope module mips_shift2 $end
$var wire 32 `# in [31:0] $end
$var wire 32 a# out [31:0] $end
$upscope $end
$scope module mips_store $end
$var wire 32 b# data_in [31:0] $end
$var wire 6 c# op [5:0] $end
$var reg 32 d# data_out [31:0] $end
$upscope $end
$upscope $end
$scope begin $unm_blk_3 $end
$var integer 32 e# i [31:0] $end
$upscope $end
$upscope $end
$enddefinitions $end
#0
$dumpvars
b10101 e#
bx d#
b0 c#
b0 b#
b0 a#
b0 `#
bx _#
bx ^#
bx ]#
bx \#
bx [#
bx Z#
bx Y#
bx X#
bx W#
bx V#
bx U#
bx T#
bx S#
bx R#
bx Q#
bx P#
bx O#
bx N#
bx M#
bx L#
bx K#
bx J#
b0 I#
b0 H#
bx G#
bx F#
bx E#
bx D#
bx C#
bx B#
bx A#
bx @#
bx ?#
bx >#
b0 =#
b10111111110000000000000000000100 <#
bx ;#
b0 :#
b0 9#
b0 8#
b0 7#
b11111 6#
b0 5#
b0 4#
b10111111110000000000000000000100 3#
b0 2#
b0 1#
b0 0#
bx /#
b10111111110000000000000000000100 .#
b10111111110000000000000000000100 -#
b1 ,#
b0 +#
b0 *#
b10110000000000000000000000000000 )#
b10111111110000000000000000000100 (#
b0 '#
bx &#
b10111111110000000000000000000000 %#
bx $#
x##
bx "#
b10111111110000000000000000000100 !#
b0 ~"
1}"
1|"
1{"
1z"
b0 y"
b1111 x"
b10111111110000000000000000000000 w"
b0 v"
b0 u"
b10111111110000000000000000000000 t"
bx s"
bx r"
bx q"
xp"
bx o"
xn"
bx m"
xl"
bx k"
xj"
b1111 i"
b0 h"
b0 g"
b0 f"
b0 e"
b0 d"
b0 c"
bx b"
bx a"
b10111111110000000000000000000100 `"
bx _"
bx ^"
b0 ]"
bx \"
b0 ["
b0 Z"
b0 Y"
b0 X"
b0 W"
b0 V"
bx U"
b0 T"
b0 S"
bx R"
bx Q"
bx P"
bx O"
bx N"
bx M"
bx L"
bx K"
bx J"
bx I"
bx H"
bx G"
bx F"
bx E"
bx D"
bx C"
bx B"
bx A"
b10111111110000000000000000000100 @"
bx ?"
bx >"
b0 ="
bx <"
b0 ;"
b0 :"
09"
b0 8"
b0 7"
b0 6"
b0 5"
b1 4"
b0 3"
b1 2"
b10111111110000000000000000000000 1"
b0 0"
b0 /"
b0 ."
b100 -"
b0 ,"
b0 +"
b1 *"
b100 )"
b0 ("
b10111111110000000000000000000000 '"
b10111111110000000000000000000000 &"
b0 %"
bx $"
b10111111110000000000000000000100 #"
b0 ""
bx !"
bx ~
b10111111110000000000000000000000 }
b100 |
b0 {
b0 z
b10111111110000000000000000000000 y
b10111111110000000000000000000000 x
b10111111110000000000000000000100 w
b10110000000000000000000000000000 v
b0 u
b10111111110000000000000000000000 t
bx s
b0 r
b0 q
bx p
b0 o
b10111111110000000000000000000100 n
bx m
b0 l
b10111111110000000000000000000100 k
bx j
b0 i
b0 h
1g
b10111111110000000000000000000000 f
b100 e
0d
b1 c
bx b
bx a
b0 `
b10111111110000000000000000000100 _
b0 ^
b0 ]
1\
0[
0Z
0Y
b10111111110000000000000000000100 X
b10111111110000000000000000000000 W
b1 V
1U
0T
b10111111110000000000000000000000 S
0R
b1111 Q
b0 P
b0 O
0N
b0 M
0L
bx K
b0 J
0I
b0 H
b0 G
b0 F
b0 E
b10110000000000000000000000000000 D
0C
bx B
b0 A
0@
b0 ?
bx >
b10111111110000000000000000000000 =
b0 <
b0 ;
b0 :
b0 9
b10111111110000000000000000000100 8
b0 7
b0 6
b0 5
04
bx 3
b0 2
b0 1
b0 0
bx /
bx .
0-
0,
1+
bx *
b0 )
0(
0'
b10111111110000000000000000000000 &
b1111 %
1$
bx #
0"
bx !
$end
#10
b0 G"
b0 E"
b0 D"
b0 F"
b0 C"
b0 J"
b0 I"
b0 H"
b1111 O"
b0 M"
b1000 L"
b10111 N"
b11111 K"
b0 R"
b1011111111000000 Q"
b10001011111111000000 P"
b111100 q"
b1000 o"
b10111111 m"
b11000000 k"
0p"
0n"
1l"
1j"
b0 U"
b0 G#
b0 C#
b0 R#
b0 D#
b0 F#
b0 E#
b0 \#
b0 [#
b0 Q#
b0 P#
b0 O#
b0 N#
b0 M#
b0 L#
b0 K#
b0 J#
b0 Z#
b0 Y#
b0 X#
b0 W#
b0 V#
b0 U#
b0 T#
b0 S#
b0 A#
b0 @#
b0 ?#
b0 >#
b0 ^#
b0 #
b0 3
b0 ;#
b0 ]#
b0 B#
b0 _#
b0 j
b0 s
b0 r"
b0 ^"
b0 >"
b0 p
b0 m
b0 $#
b0 "#
b10111111110000000000000000000000 &#
1'
b111100000010001011111111000000 *
b111100000010001011111111000000 .
b111100000010001011111111000000 B"
b111100000010001011111111000000 b"
1(
#20
0(
0+
#30
b10111111101111101111111100000100 8
b10111111101111101111111100000100 3#
b10111111101111101111111100000100 <#
b10111111101111101111111100000100 _
b10111111101111101111111100000100 k
b10111111101111101111111100000100 n
b10111111101111101111111100000100 w
b10111111101111101111111100000100 #"
b10111111101111101111111100000100 @"
b10111111101111101111111100000100 `"
b10111111101111101111111100000100 (#
b10111111101111101111111100000100 .#
b11111111111111101111111100000000 F
b11111111111111101111111100000000 +"
b11111111111111101111111100000000 a#
19"
b11111111111111111011111111000000 G
b11111111111111111011111111000000 ,"
b11111111111111111011111111000000 ;"
b11111111111111111011111111000000 `#
b1000 7
b1000 8#
b1000 =#
b111100000010001011111111000000 >
b111100000010001011111111000000 s"
b111100000010001011111111000000 /#
b1 )
b100 z
0g
b11111111111111101111111100000000 e
b11111111111111101111111100000000 |
b11111111111111101111111100000000 -"
b10110000001000101111111100000000 D
b10110000001000101111111100000000 v
b10110000001000101111111100000000 )#
b10001011111111000000 ?
b10001011111111000000 u
b10001011111111000000 V"
b1011111111000000 H
b1011111111000000 :"
b1011111111000000 T"
b11111 0
b11111 {
b11111 ["
b1000 1
b1000 ."
b1000 Z"
b1000 4#
b1000 :#
b10111 ;
b10111 X"
b10111 5#
b1111 <
b1111 /"
b1111 W"
b1111 c"
b1111 v"
b1111 c#
b10111111110000000000000000000100 &
b10111111110000000000000000000100 S
b10111111110000000000000000000100 1"
b10111111110000000000000000000100 w"
b10111111110000000000000000000100 =
b10111111110000000000000000000100 y
b10111111110000000000000000000100 t"
b10111111110000000000000000000100 f
b10111111110000000000000000000100 }
b10111111110000000000000000000100 '"
0\
0U
b0 V
b0 4"
b0 ,#
b11 c
b11 *"
b11 2"
1[
1Z
0$
b10111111110000000000000000000100 W
b10111111110000000000000000000100 t
b10111111110000000000000000000100 x
b10111111110000000000000000000100 &"
b10111111110000000000000000000100 %#
b10111111110000000000000000000100 ^
b10111111110000000000000000000100 l
b10111111110000000000000000000100 +#
b10111111110000000000000000000100 ]
b10111111110000000000000000000100 o
b10111111110000000000000000000100 '#
b1 8"
b10111111110000000000000000000100 &#
b10111111110000000000000000000100 m
b10111111110000000000000000000100 p
b1111 r"
1(
#40
0(
#50
b10111111110000000000000000000000 8
b10111111110000000000000000000000 3#
b10111111110000000000000000000000 <#
b0 z
b11111111111111111011111111000000 e
b11111111111111111011111111000000 |
b11111111111111111011111111000000 -"
b10111111110000000000000000000000 _
b10111111110000000000000000000000 k
b10111111110000000000000000000000 n
b10111111110000000000000000000000 w
b10111111110000000000000000000000 #"
b10111111110000000000000000000000 @"
b10111111110000000000000000000000 `"
b10111111110000000000000000000000 (#
b10111111110000000000000000000000 .#
b0 f
b0 }
b0 '"
b10111111101111101111111100000100 X
b10111111101111101111111100000100 !#
b10111111101111101111111100000100 -#
b1111 G"
b1000 D"
b10111 F"
b11111 C"
b1011111111000000 I"
b10001011111111000000 H"
b10111111101111101111111100000100 ^
b10111111101111101111111100000100 l
b10111111101111101111111100000100 +#
b10 c
b10 *"
b10 2"
b11001 `
b11001 ""
b11001 3"
1d
b100 V
b100 4"
b100 ,#
0[
0Z
14
b111100000010001011111111000000 U"
b10111111101111101111111100000100 m
b10 8"
1(
#60
0(
#70
b10111111110000000000000000001000 8
b10111111110000000000000000001000 3#
b10111111110000000000000000001000 <#
b100 z
1g
b10111111110000000000000000001000 _
b10111111110000000000000000001000 k
b10111111110000000000000000001000 n
b10111111110000000000000000001000 w
b10111111110000000000000000001000 #"
b10111111110000000000000000001000 @"
b10111111110000000000000000001000 `"
b10111111110000000000000000001000 (#
b10111111110000000000000000001000 .#
b100 e
b100 |
b100 -"
b10111111110000000000000000000100 f
b10111111110000000000000000000100 }
b10111111110000000000000000000100 '"
b10111111110000000000000000001000 X
b10111111110000000000000000001000 !#
b10111111110000000000000000001000 -#
1U
1\
b1 V
b1 4"
b1 ,#
b0 `
b0 ""
b0 3"
b1 c
b1 *"
b1 2"
0d
04
1$
b10111111110000000000000000000000 ^
b10111111110000000000000000000000 l
b10111111110000000000000000000000 +#
b10111111110000000000000000000000 O
b10111111110000000000000000000000 q
b10111111110000000000000000000000 I#
b0 8"
b10111111110000000000000000000000 m
b10111111110000000000000000000000 S#
1(
#80
0(
#90
b10110000 F
b10110000 +"
b10110000 a#
b10111111110000000000000010111000 8
b10111111110000000000000010111000 3#
b10111111110000000000000010111000 <#
1}"
1|"
1{"
b1111 %
b1111 Q
b1111 i"
b1111 x"
1z"
b10 )
b1000 z
09"
b101100 G
b101100 ,"
b101100 ;"
b101100 `#
b10111111110000000000000010111000 _
b10111111110000000000000010111000 k
b10111111110000000000000010111000 n
b10111111110000000000000010111000 w
b10111111110000000000000010111000 #"
b10111111110000000000000010111000 @"
b10111111110000000000000010111000 `"
b10111111110000000000000010111000 (#
b10111111110000000000000010111000 .#
b1001 7
b1001 8#
b1001 =#
b0 O
b0 q
b0 I#
b10111111110000000000000000000000 P
b10111111110000000000000000000000 h
b10111111110000000000000000000000 H#
b10 E
b10 5"
b10 u"
b10 ~"
b10111111 h"
b11000000 g"
b10111111110000000000000000001000 &
b10111111110000000000000000001000 S
b10111111110000000000000000001000 1"
b10111111110000000000000000001000 w"
b10111111110000000000000000001000 =
b10111111110000000000000000001000 y
b10111111110000000000000000001000 t"
b10111111110000000000000000001000 f
b10111111110000000000000000001000 }
b10111111110000000000000000001000 '"
0g
b10110000 e
b10110000 |
b10110000 -"
b10110100001001000000000010110000 D
b10110100001001000000000010110000 v
b10110100001001000000000010110000 )#
b1000010010000000000101100 ?
b1000010010000000000101100 u
b1000010010000000000101100 V"
b101100 H
b101100 :"
b101100 T"
b101100 M
b101100 0"
b101100 S"
b0 0
b0 {
b0 ["
b1001 1
b1001 ."
b1001 Z"
b1001 4#
b1001 :#
b0 ;
b0 X"
b0 5#
b1000 2
b1000 Y"
b1000 9#
b100011 <
b100011 /"
b100011 W"
b100011 c"
b100011 v"
b100011 c#
b10001101000010010000000000101100 >
b10001101000010010000000000101100 s"
b10001101000010010000000000101100 /#
b10111111110000000000000000000000 9
b10111111110000000000000000000000 r
b10111111110000000000000000000000 ("
b10111111110000000000000000000000 d"
b10111111110000000000000000000000 b#
b10111111110000000000000000001000 ]
b10111111110000000000000000001000 o
b10111111110000000000000000001000 '#
b10111111110000000000000000001000 ^
b10111111110000000000000000001000 l
b10111111110000000000000000001000 +#
b10111111110000000000000000001000 W
b10111111110000000000000000001000 t
b10111111110000000000000000001000 x
b10111111110000000000000000001000 &"
b10111111110000000000000000001000 %#
0\
0U
b0 V
b0 4"
b0 ,#
b11 c
b11 *"
b11 2"
1[
1Z
0$
b100011 O"
b1000 M"
b1001 L"
b0 N"
b0 K"
b101100 R"
b101100 Q"
b1000010010000000000101100 P"
b10001101 q"
b1001 o"
b0 m"
b101100 k"
1p"
0l"
0j"
b10111111110000000000000000000000 s
b10111111110000000000000000001000 p
b10111111110000000000000000001000 m
b10111111110000000000000000001000 &#
b1 8"
b10001101000010010000000000101100 *
b10001101000010010000000000101100 .
b10001101000010010000000000101100 B"
b10001101000010010000000000101100 b"
1(
#100
0(
#110
b10111111110000000000000000101100 8
b10111111110000000000000000101100 3#
b10111111110000000000000000101100 <#
b1011 )
b0 z
b10111111110000000000000000101100 _
b10111111110000000000000000101100 k
b10111111110000000000000000101100 n
b10111111110000000000000000101100 w
b10111111110000000000000000101100 #"
b10111111110000000000000000101100 @"
b10111111110000000000000000101100 `"
b10111111110000000000000000101100 (#
b10111111110000000000000000101100 .#
b10111111110000000000000000101100 &
b10111111110000000000000000101100 S
b10111111110000000000000000101100 1"
b10111111110000000000000000101100 w"
b10111111110000000000000000101100 =
b10111111110000000000000000101100 y
b10111111110000000000000000101100 t"
b101100 e
b101100 |
b101100 -"
b0 h"
b0 g"
b10111111110000000000000000000000 f
b10111111110000000000000000000000 }
b10111111110000000000000000000000 '"
b10111111110000000000000010111000 X
b10111111110000000000000010111000 !#
b10111111110000000000000010111000 -#
1Y
1$
b10 c
b10 *"
b10 2"
1d
b100 V
b100 4"
b100 ,#
0[
0Z
04
b10111111110000000000000010111000 ^
b10111111110000000000000010111000 l
b10111111110000000000000010111000 +#
b0 9
b0 r
b0 ("
b0 d"
b0 b#
b10111111110000000000000000000000 :
b10111111110000000000000000000000 i
b10111111110000000000000000000000 %"
b10111111110000000000000000000000 *#
b100011 G"
b1000 E"
b1001 D"
b0 F"
b0 C"
b101100 J"
b101100 I"
b1000010010000000000101100 H"
b10 8"
b10111111110000000000000010111000 m
b0 s
b10111111110000000000000000000000 j
b10001101000010010000000000101100 U"
1(
#120
0(
#130
b10 )
b1000 z
b10111111110000000000000000001000 _
b10111111110000000000000000001000 k
b10111111110000000000000000001000 n
b10111111110000000000000000001000 w
b10111111110000000000000000001000 #"
b10111111110000000000000000001000 @"
b10111111110000000000000000001000 `"
b10111111110000000000000000001000 (#
b10111111110000000000000000001000 .#
b10111111110000000000000000001000 &
b10111111110000000000000000001000 S
b10111111110000000000000000001000 1"
b10111111110000000000000000001000 w"
b10111111110000000000000000001000 =
b10111111110000000000000000001000 y
b10111111110000000000000000001000 t"
b10111111110000000000000000001000 X
b10111111110000000000000000001000 !#
b10111111110000000000000000001000 -#
b0 e
b0 |
b0 -"
b10111111110000000000000000001000 f
b10111111110000000000000000001000 }
b10111111110000000000000000001000 '"
b11110011 8
b11110011 3#
b11110011 <#
b11110011 >
b11110011 s"
b11110011 /#
b10111111110000000000000000101100 ^
b10111111110000000000000000101100 l
b10111111110000000000000000101100 +#
0Y
b0 V
b0 4"
b0 ,#
b0 c
b0 *"
b0 2"
0d
14
b1 6
b1 6"
b1 2#
0$
b0 O"
b0 M"
b0 L"
b11 K"
b110011 R"
b11110011 Q"
b11110011 P"
b0 q"
b0 o"
b11110011 k"
0p"
1j"
b10111111110000000000000000101100 m
b11 8"
b11110011 *
b11110011 .
b11110011 B"
b11110011 b"
1(
#140
0(
#150
b10111111110000000000000000001100 X
b10111111110000000000000000001100 !#
b10111111110000000000000000001100 -#
b10111111110000000000000000001100 _
b10111111110000000000000000001100 k
b10111111110000000000000000001100 n
b10111111110000000000000000001100 w
b10111111110000000000000000001100 #"
b10111111110000000000000000001100 @"
b10111111110000000000000000001100 `"
b10111111110000000000000000001100 (#
b10111111110000000000000000001100 .#
1g
b100 e
b100 |
b100 -"
b10111111110000000000000000001100 8
b10111111110000000000000000001100 3#
b10111111110000000000000000001100 <#
1U
1\
b1 V
b1 4"
b1 ,#
b1 c
b1 *"
b1 2"
04
b0 6
b0 6"
b0 2#
1$
b10111111110000000000000000001000 ^
b10111111110000000000000000001000 l
b10111111110000000000000000001000 +#
b11110011 O
b11110011 q
b11110011 I#
b0 8"
b10111111110000000000000000001000 m
b11110011 T#
1(
#160
0(
