Konst_Stuff/MIPS_FULL_V1.4/tb.vcd
$date
	Wed Dec 15 14:08:53 2021
$end
$version
	Icarus Verilog
$end
$timescale
	1s
$end
$scope module tb $end
$var wire 32 ! writedata [31:0] $end
$var wire 1 " write $end
$var wire 32 # register_v0 [31:0] $end
$var wire 1 $ read $end
$var wire 4 % byteenable [3:0] $end
$var wire 32 & address [31:0] $end
$var wire 1 ' active $end
$var reg 1 ( clk $end
$var reg 5 ) mappedaddress [4:0] $end
$var reg 32 * readdata [31:0] $end
$var reg 1 + reset $end
$var reg 1 , waitrequest $end
$scope module dut $end
$var wire 4 - byteenable [3:0] $end
$var wire 1 ( clk $end
$var wire 32 . readdata [31:0] $end
$var wire 1 + reset $end
$var wire 1 , waitrequest $end
$var wire 32 / writedata [31:0] $end
$var wire 1 " write $end
$var wire 1 0 waitreq_sync $end
$var wire 1 1 waitreq_relev $end
$var wire 1 2 waitreq_plus $end
$var wire 26 3 target [25:0] $end
$var wire 2 4 state [1:0] $end
$var wire 5 5 shamt [4:0] $end
$var wire 5 6 rt [4:0] $end
$var wire 5 7 rs [4:0] $end
$var wire 32 8 regstore [31:0] $end
$var wire 32 9 register_v0 [31:0] $end
$var wire 32 : register_t [31:0] $end
$var wire 1 $ read $end
$var wire 5 ; rd [4:0] $end
$var wire 32 < pc [31:0] $end
$var wire 6 = opcode [5:0] $end
$var wire 32 > op2 [31:0] $end
$var wire 32 ? op1 [31:0] $end
$var wire 32 @ mem_addr_init [31:0] $end
$var wire 32 A lo [31:0] $end
$var wire 32 B immediate_ext [31:0] $end
$var wire 16 C immediate [15:0] $end
$var wire 64 D hilo [63:0] $end
$var wire 32 E hi [31:0] $end
$var wire 6 F func [5:0] $end
$var wire 4 G byteenable_log [3:0] $end
$var wire 4 H branch_cond [3:0] $end
$var wire 32 I address [31:0] $end
$var wire 1 ' active $end
$var wire 32 J RAMDout_2 [31:0] $end
$var wire 32 K ALUout [31:0] $end
$scope module ALU $end
$var wire 1 ( clk $end
$var wire 1 + reset $end
$var wire 1 1 waitrequest $end
$var wire 2 L state [1:0] $end
$var wire 32 M shift_out [31:0] $end
$var wire 5 N shamt [4:0] $end
$var wire 6 O opcode [5:0] $end
$var wire 32 P op2 [31:0] $end
$var wire 32 Q op1 [31:0] $end
$var wire 32 R lo [31:0] $end
$var wire 64 S hilo [63:0] $end
$var wire 32 T hi [63:32] $end
$var wire 6 U funct [5:0] $end
$var wire 4 V branch_conditions [3:0] $end
$var wire 1 W als_shift $end
$var wire 32 X als_out [31:0] $end
$var wire 1 ' active $end
$var reg 32 Y alu_out [31:0] $end
$scope module asl $end
$var wire 32 Z and_res [31:0] $end
$var wire 32 [ or_res [31:0] $end
$var wire 32 \ xor_res [31:0] $end
$var wire 32 ] sub_res [31:0] $end
$var wire 6 ^ opcode [5:0] $end
$var wire 32 _ op2 [31:0] $end
$var wire 32 ` op1 [31:0] $end
$var wire 6 a funct [5:0] $end
$var wire 32 b add_res [31:0] $end
$var reg 32 c add_sub_out [31:0] $end
$var reg 4 d branch_conditions [3:0] $end
$upscope $end
$scope module mdb $end
$var wire 1 ( clk $end
$var wire 1 + reset $end
$var wire 32 e ua [31:0] $end
$var wire 32 f ub [31:0] $end
$var wire 1 1 waitrequest $end
$var wire 2 g state [1:0] $end
$var wire 33 h sr [32:0] $end
$var wire 33 i sq [32:0] $end
$var wire 64 j sm [63:0] $end
$var wire 32 k sb [31:0] $end
$var wire 32 l sa [31:0] $end
$var wire 33 m r [32:0] $end
$var wire 33 n q [32:0] $end
$var wire 6 o opcode [5:0] $end
$var wire 32 p op2 [31:0] $end
$var wire 32 q op1 [31:0] $end
$var wire 64 r m [63:0] $end
$var wire 64 s hilo [63:0] $end
$var wire 6 t func [5:0] $end
$var wire 1 ' active $end
$var reg 32 u hi [63:32] $end
$var reg 32 v lo [31:0] $end
$upscope $end
$scope module shift $end
$var wire 3 w type_shift [2:0] $end
$var wire 32 x shamt32 [31:0] $end
$var wire 5 y shamt [4:0] $end
$var wire 32 z right_logical [31:0] $end
$var wire 32 { right_arithmetic [31:0] $end
$var wire 1 | reg_imm $end
$var wire 6 } opcode [5:0] $end
$var wire 32 ~ op2 [31:0] $end
$var wire 32 !" op1 [31:0] $end
$var wire 32 "" left_logical [31:0] $end
$var wire 6 #" funct [5:0] $end
$var reg 32 $" sa [31:0] $end
$var reg 32 %" shift_out [31:0] $end
$upscope $end
$upscope $end
$scope module fsm $end
$var wire 1 ( clk $end
$var wire 1 + reset $end
$var wire 1 1 wait_req $end
$var wire 6 &" opcode [5:0] $end
$var wire 32 '" mem_address [31:0] $end
$var reg 1 ' active $end
$var reg 2 (" state [1:0] $end
$upscope $end
$scope module instr $end
$var wire 1 ( clk $end
$var wire 32 )" mem_input [31:0] $end
$var wire 1 + reset $end
$var wire 2 *" state [1:0] $end
$var wire 1 0 waitreq_sync $end
$var wire 1 1 waitreq_relev $end
$var wire 1 2 waitreq_plus $end
$var wire 26 +" t_target [25:0] $end
$var wire 5 ," t_shamt [4:0] $end
$var wire 5 -" t_rt [4:0] $end
$var wire 5 ." t_rs [4:0] $end
$var wire 5 /" t_rd [4:0] $end
$var wire 6 0" t_op [5:0] $end
$var wire 16 1" t_immediate [15:0] $end
$var wire 6 2" t_func [5:0] $end
$var wire 3 3" op_msbs [2:0] $end
$var wire 26 4" m_target [25:0] $end
$var wire 5 5" m_shamt [4:0] $end
$var wire 5 6" m_rt [4:0] $end
$var wire 5 7" m_rs [4:0] $end
$var wire 5 8" m_rd [4:0] $end
$var wire 6 9" m_op [5:0] $end
$var wire 16 :" m_immediate [15:0] $end
$var wire 6 ;" m_func [5:0] $end
$var reg 6 <" func [5:0] $end
$var reg 16 =" immediate [15:0] $end
$var reg 32 >" instr [31:0] $end
$var reg 6 ?" op [5:0] $end
$var reg 5 @" rd [4:0] $end
$var reg 5 A" rs [4:0] $end
$var reg 5 B" rt [4:0] $end
$var reg 5 C" shamt [4:0] $end
$var reg 26 D" target [25:0] $end
$var reg 1 E" waitreq_offset $end
$upscope $end
$scope module mdec $end
$var wire 1 ' active $end
$var wire 1 ( clk $end
$var wire 32 F" data_in [31:0] $end
$var wire 6 G" op [5:0] $end
$var wire 1 + reset $end
$var wire 1 1 waitrequest $end
$var wire 8 H" rt_byte3 [7:0] $end
$var wire 8 I" rt_byte2 [7:0] $end
$var wire 8 J" rt_byte1 [7:0] $end
$var wire 8 K" rt_byte0 [7:0] $end
$var wire 32 L" rt [31:0] $end
$var wire 4 M" byteenable [3:0] $end
$var wire 1 N" byte3_msb $end
$var wire 8 O" byte3 [7:0] $end
$var wire 1 P" byte2_msb $end
$var wire 8 Q" byte2 [7:0] $end
$var wire 1 R" byte1_msb $end
$var wire 8 S" byte1 [7:0] $end
$var wire 1 T" byte0_msb $end
$var wire 8 U" byte0 [7:0] $end
$var reg 4 V" be_signal [3:0] $end
$var reg 32 W" data_out [31:0] $end
$upscope $end
$scope module mint $end
$var wire 32 X" cpu_out [31:0] $end
$var wire 6 Y" func [5:0] $end
$var wire 6 Z" op [5:0] $end
$var wire 5 [" rt [4:0] $end
$var wire 32 \" mem_addr [31:0] $end
$var wire 4 ]" byteenable [3:0] $end
$var wire 2 ^" byte_idx [1:0] $end
$var reg 1 _" byte0 $end
$var reg 1 `" byte1 $end
$var reg 1 a" byte2 $end
$var reg 1 b" byte3 $end
$var reg 2 c" instr_type [1:0] $end
$upscope $end
$scope module progc $end
$var wire 1 ' active $end
$var wire 1 ( clk $end
$var wire 4 d" control [3:0] $end
$var wire 6 e" funct [5:0] $end
$var wire 16 f" offset [15:0] $end
$var wire 6 g" opcode [5:0] $end
$var wire 5 h" rd [4:0] $end
$var wire 1 + reset $end
$var wire 5 i" rt [4:0] $end
$var wire 5 j" sa [4:0] $end
$var wire 2 k" state [1:0] $end
$var wire 26 l" target [25:0] $end
$var wire 1 1 waitrequest $end
$var wire 32 m" rs_data [31:0] $end
$var wire 32 n" regstore [31:0] $end
$var wire 32 o" pc_inc [31:0] $end
$var reg 1 p" delayflag $end
$var reg 32 q" dest [31:0] $end
$var reg 32 r" pc [31:0] $end
$upscope $end
$scope module regf $end
$var wire 32 s" ALUout [31:0] $end
$var wire 32 t" PC [31:0] $end
$var wire 32 u" RAMDout [31:0] $end
$var wire 1 v" RegWriteEN $end
$var wire 1 ' active $end
$var wire 1 ( clk $end
$var wire 6 w" func [5:0] $end
$var wire 32 x" hi [31:0] $end
$var wire 32 y" immed [31:0] $end
$var wire 32 z" lo [31:0] $end
$var wire 6 {" opcode [5:0] $end
$var wire 5 |" rd [4:0] $end
$var wire 32 }" reg_tout [31:0] $end
$var wire 1 + reset $end
$var wire 5 ~" rs [4:0] $end
$var wire 5 !# rt [4:0] $end
$var wire 2 "# state [1:0] $end
$var wire 1 1 waitrequest $end
$var wire 32 ## upper_immed [31:0] $end
$var wire 32 $# register_v0 [31:0] $end
$var wire 32 %# reg_t [31:0] $end
$var wire 32 &# op2 [31:0] $end
$var wire 32 '# op1 [31:0] $end
$var wire 32 (# hi_or_lo [31:0] $end
$var wire 5 )# Write_register [4:0] $end
$var wire 32 *# Write_data [31:0] $end
$var wire 1 +# RegWrite $end
$var wire 1 ,# Enable $end
$scope module m $end
$var wire 32 -# Read_data_1 [31:0] $end
$var wire 32 .# Read_data_2 [31:0] $end
$var wire 5 /# Read_register_1 [4:0] $end
$var wire 5 0# Read_register_2 [4:0] $end
$var wire 1 v" RegWrite $end
$var wire 32 1# Write_data [31:0] $end
$var wire 5 2# Write_register [4:0] $end
$var wire 1 ( clk $end
$var wire 32 3# register_v0 [31:0] $end
$var wire 1 + reset $end
$var integer 32 4# i [31:0] $end
$upscope $end
$upscope $end
$scope module sf $end
$var wire 32 5# data_in [31:0] $end
$var wire 6 6# op [5:0] $end
$var reg 8 7# byte3 [7:0] $end
$var reg 32 8# data_out [31:0] $end
$var reg 16 9# halfword [15:0] $end
$upscope $end
$scope module wreq $end
$var wire 1 ( clk $end
$var wire 6 :# opcode [5:0] $end
$var wire 2 ;# state [1:0] $end
$var wire 1 2 waitreq_plus $end
$var wire 1 1 waitreq_relev $end
$var wire 1 0 waitreq_sync $end
$var wire 1 , waitrequest $end
$var reg 1 <# waitreqplus $end
$upscope $end
$upscope $end
$scope begin $unm_blk_4 $end
$var integer 32 =# i [31:0] $end
$upscope $end
$upscope $end
$enddefinitions $end
#0
$dumpvars
b10101 =#
x<#
bx ;#
b0 :#
bx 9#
bx 8#
bx 7#
b0 6#
b0 5#
b100000 4#
b10100 3#
b0 2#
b0 1#
b0 0#
b0 /#
b0 .#
b0 -#
x,#
1+#
b0 *#
b0 )#
bx (#
b0 '#
b0 &#
b0 %#
b10100 $#
b0 ##
bx "#
b0 !#
b0 ~"
b0 }"
b0 |"
b0 {"
bx z"
b0 y"
bx x"
b0 w"
xv"
bx u"
bx t"
b0 s"
bx r"
bx q"
0p"
bx o"
bx n"
b0 m"
b0 l"
bx k"
b0 j"
b0 i"
b0 h"
b0 g"
b0 f"
b0 e"
b1010 d"
b0 c"
1b"
1a"
1`"
1_"
bx ^"
b1111 ]"
bx \"
b0 ["
b0 Z"
b0 Y"
bx X"
bx W"
bx V"
bx U"
xT"
bx S"
xR"
bx Q"
xP"
bx O"
xN"
b1111 M"
b0 L"
b0 K"
b0 J"
b0 I"
b0 H"
b0 G"
bx F"
xE"
b0 D"
b0 C"
b0 B"
b0 A"
b0 @"
b0 ?"
bx >"
b0 ="
b0 <"
bx ;"
bx :"
bx 9"
bx 8"
bx 7"
bx 6"
bx 5"
bx 4"
b0 3"
bx 2"
bx 1"
bx 0"
bx /"
bx ."
bx -"
bx ,"
bx +"
bx *"
bx )"
bx ("
bx '"
b0 &"
b0 %"
b0 $"
b0 #"
b0 ""
b0 !"
b0 ~
b0 }
0|
b0 {
b0 z
b0 y
b0 x
b0 w
bx v
bx u
b0 t
bx s
b0 r
b0 q
b0 p
b0 o
bx n
bx m
b0 l
b0 k
b0 j
bx i
bx h
bx g
b0 f
b0 e
b1010 d
bx c
b0 b
b0 a
b0 `
b0 _
b0 ^
b0 ]
b0 \
b0 [
b0 Z
b0 Y
bx X
0W
b1010 V
b0 U
bx T
bx S
bx R
b0 Q
b0 P
b0 O
b0 N
b0 M
bx L
b0 K
bx J
bx I
b1010 H
b1111 G
b0 F
bx E
bx D
b0 C
b0 B
bx A
bx @
b0 ?
b0 >
b0 =
bx <
b0 ;
b0 :
b10100 9
bx 8
b0 7
b0 6
b0 5
bx 4
b0 3
x2
01
x0
bx /
bx .
b1111 -
0,
1+
bx *
bx )
0(
1'
bx &
b1111 %
x$
b10100 #
0"
bx !
$end
#10
0v"
0,#
b0 )
1$
b10111111110000000000000000000000 &
b10111111110000000000000000000000 I
b10111111110000000000000000000000 \"
b0 ^"
00
b0 0"
b0 ."
b0 -"
b0 /"
b0 ,"
b0 2"
b0 1"
b0 +"
b0 (#
b10111111110000000000000000000000 @
b10111111110000000000000000000000 X"
02
0<#
b0 >"
b0 #
b0 9
b0 $#
b0 3#
b0 A
b0 R
b0 v
b0 z"
b0 D
b0 S
b0 s
b0 E
b0 T
b0 u
b0 x"
b0 q"
b10111111110000000000000000000100 o"
b10111111110000000000000000001000 8
b10111111110000000000000000001000 n"
b10111111110000000000000000001000 t"
b10111111110000000000000000000000 <
b10111111110000000000000000000000 '"
b10111111110000000000000000000000 r"
b0 V"
b0 4
b0 L
b0 g
b0 ("
b0 *"
b0 k"
b0 "#
b0 ;#
b100000 4#
1(
#20
bx )#
bx 2#
x+#
bx Z
bx *#
bx 1#
bx0000000000000000 ##
bx w
x|
xW
bx f
bx >
bx P
bx _
bx k
bx p
bx ~
bx &#
bx H"
bx I"
bx J"
bx K"
bx \
bx [
bx M
bx %"
bx ""
bx z
bx {
b0xxxxx $"
b0x 3"
bx K
bx Y
bx s"
bx100 H
bx100 V
bx100 d
bx100 d"
bx 3
bx D"
bx l"
b0xxxxxxxxxxxxxxxx B
b0xxxxxxxxxxxxxxxx y"
bx C
bx ="
bx f"
bx F
bx U
bx a
bx t
bx #"
bx <"
bx Y"
bx e"
bx w"
b0xxxxx x
bx 5
bx N
bx y
bx C"
bx j"
bx :
bx L"
bx }"
bx 5#
bx %#
bx .#
bx 6
bx B"
bx ["
bx i"
bx !#
bx 0#
bx ;
bx @"
bx h"
bx |"
bx j
bx r
bx e
bx ]
bx b
bx ?
bx Q
bx `
bx l
bx q
bx !"
bx m"
bx '#
bx -#
bx 7
bx A"
bx ~"
bx /#
bx =
bx O
bx ^
bx o
bx }
bx &"
bx ?"
bx G"
bx Z"
bx g"
bx {"
bx 6#
bx :#
0(
0+
#30
1+#
1v"
1,#
b0 i
b0 h
b0 j
b0 r
b0 m
b0 n
b11111111111111110100000001000000 ]
b1011111111000000 b
b1000 )#
b1000 2#
b0 M
b0 %"
b1011111111000000 \
b1011111111000000 [
b10111111110000000000000000000000 *#
b10111111110000000000000000000000 1#
1b"
1a"
1`"
b1111 %
b1111 -
b1111 G
b1111 M"
b1111 ]"
1_"
b10111111110000000000000000000000 ##
b0 w
0|
0W
b0 {
b1011111111000000 f
b1011111111000000 >
b1011111111000000 P
b1011111111000000 _
b1011111111000000 k
b1011111111000000 p
b1011111111000000 ~
b1011111111000000 &#
b0 H"
b0 I"
b0 J"
b0 K"
b0 Z
b0 ""
b0 z
b11111 $"
b0 3"
b10 H
b10 V
b10 d
b10 d"
b111100000010001011111111000000 J
b111100000010001011111111000000 W"
b111100000010001011111111000000 u"
b10 c"
0$
0"
b10001011111111000000 3
b10001011111111000000 D"
b10001011111111000000 l"
b1011111111000000 B
b1011111111000000 y"
b1011111111000000 C
b1011111111000000 ="
b1011111111000000 f"
b0 F
b0 U
b0 a
b0 t
b0 #"
b0 <"
b0 Y"
b0 e"
b0 w"
b11111 x
b11111 5
b11111 N
b11111 y
b11111 C"
b11111 j"
b0 :
b0 L"
b0 }"
b0 5#
b0 %#
b0 .#
b1000 6
b1000 B"
b1000 ["
b1000 i"
b1000 !#
b1000 0#
b10111 ;
b10111 @"
b10111 h"
b10111 |"
b0 e
b0 ?
b0 Q
b0 `
b0 l
b0 q
b0 !"
b0 m"
b0 '#
b0 -#
b0 7
b0 A"
b0 ~"
b0 /#
b1111 =
b1111 O
b1111 ^
b1111 o
b1111 }
b1111 &"
b1111 ?"
b1111 G"
b1111 Z"
b1111 g"
b1111 {"
b1111 6#
b1111 :#
bx ^"
bx )
b1111 9"
b0 7"
b1000 6"
b10111 8"
b11111 5"
b0 ;"
b1011111111000000 :"
b10001011111111000000 4"
b111100 U"
b1000 S"
b10111111 Q"
b11000000 O"
0T"
0R"
1P"
1N"
bx &
bx I
bx \"
bx @
bx X"
b111100000010001011111111000000 *
b111100000010001011111111000000 .
b111100000010001011111111000000 )"
b111100000010001011111111000000 F"
b1 4
b1 L
b1 g
b1 ("
b1 *"
b1 k"
b1 "#
b1 ;#
b1111 V"
1(
#40
0(
#50
0v"
0,#
b1 )
1b"
1a"
1`"
b1111 %
b1111 -
b1111 G
b1111 M"
b1111 ]"
1_"
1$
b10111111110000000000000000000100 &
b10111111110000000000000000000100 I
b10111111110000000000000000000100 \"
b0 ^"
b1111 0"
b1000 -"
b10111 /"
b11111 ,"
b1011111111000000 1"
b10001011111111000000 +"
b11000000 J"
b10111111 K"
b10111111110000000000000000000100 @
b10111111110000000000000000000100 X"
b111100000010001011111111000000 >"
0E"
b10111111110000000000000000000000 :
b10111111110000000000000000000000 L"
b10111111110000000000000000000000 }"
b10111111110000000000000000000000 5#
b10111111110000000000000000000000 %#
b10111111110000000000000000000000 .#
b10111111110000000000000000001000 o"
b10111111110000000000000000001100 8
b10111111110000000000000000001100 n"
b10111111110000000000000000001100 t"
b10111111110000000000000000000100 <
b10111111110000000000000000000100 '"
b10111111110000000000000000000100 r"
b0 4
b0 L
b0 g
b0 ("
b0 *"
b0 k"
b0 "#
b0 ;#
1(
#60
0(
#70
0v"
0,#
b1001 )#
b1001 2#
b10001101000010010000000000011000 *#
b10001101000010010000000000011000 1#
b110000000000000000000 ##
b1000 m
b11000 f
b11000 >
b11000 P
b11000 _
b11000 k
b11000 p
b11000 ~
b11000 &#
b0 J"
b0 K"
b10111111110000000000000000011000 \
b10111111110000000000000000011000 [
b11000 M
b11000 %"
b11000 ""
b11000 z
b11000 {
b0 $"
b1 3"
b10111111110000000000000000011000 K
b10111111110000000000000000011000 Y
b10111111110000000000000000011000 s"
b1 H
b1 V
b1 d
b1 d"
b10111111110000000000000000011000 X
b10111111110000000000000000011000 c
1b"
1a"
1`"
b1111 %
b1111 -
b1111 G
b1111 M"
b1111 ]"
1_"
1$
b1000010010000000000011000 3
b1000010010000000000011000 D"
b1000010010000000000011000 l"
b11000 B
b11000 y"
b11000 C
b11000 ="
b11000 f"
b11000 F
b11000 U
b11000 a
b11000 t
b11000 #"
b11000 <"
b11000 Y"
b11000 e"
b11000 w"
b0 x
b0 5
b0 N
b0 y
b0 C"
b0 j"
b0 :
b0 L"
b0 }"
b0 5#
b0 %#
b0 .#
b1001 6
b1001 B"
b1001 ["
b1001 i"
b1001 !#
b1001 0#
b0 ;
b0 @"
b0 h"
b0 |"
b111111101010100101010101010101011 i
b111111111111111111111111111111000 h
b1111111111111111111111111111100111111010000000000000000000000000 j
b1000111111010000000000000000000000000 r
b111111111010101010101010101 n
b10111111110000000000000000000000 e
b10111111101111111111111111101000 ]
b10111111110000000000000000011000 b
b10111111110000000000000000000000 ?
b10111111110000000000000000000000 Q
b10111111110000000000000000000000 `
b10111111110000000000000000000000 l
b10111111110000000000000000000000 q
b10111111110000000000000000000000 !"
b10111111110000000000000000000000 m"
b10111111110000000000000000000000 '#
b10111111110000000000000000000000 -#
b1000 7
b1000 A"
b1000 ~"
b1000 /#
b100011 =
b100011 O
b100011 ^
b100011 o
b100011 }
b100011 &"
b100011 ?"
b100011 G"
b100011 Z"
b100011 g"
b100011 {"
b100011 6#
b100011 :#
b10001101000010010000000000011000 J
b10001101000010010000000000011000 W"
b10001101000010010000000000011000 u"
b0 ^"
b110 )
b100011 9"
b1000 7"
b1001 6"
b0 8"
b0 5"
b11000 ;"
b11000 :"
b1000010010000000000011000 4"
b10001101 U"
b1001 S"
b0 Q"
b11000 O"
1T"
0P"
0N"
b10111111110000000000000000011000 &
b10111111110000000000000000011000 I
b10111111110000000000000000011000 \"
b10111111110000000000000000011000 @
b10111111110000000000000000011000 X"
b10001101000010010000000000011000 *
b10001101000010010000000000011000 .
b10001101000010010000000000011000 )"
b10001101000010010000000000011000 F"
b1 4
b1 L
b1 g
b1 ("
b1 *"
b1 k"
b1 "#
b1 ;#
1(
#80
0(
#90
1v"
b110 )
1,#
b10111111110000000000000000011000 &
b10111111110000000000000000011000 I
b10111111110000000000000000011000 \"
b10111111110000000000000000011000 @
b10111111110000000000000000011000 X"
0$
b1001 )#
b1001 2#
b10111111110000000000000000011000 K
b10111111110000000000000000011000 Y
b10111111110000000000000000011000 s"
b1000 *#
b1000 1#
b10111111110000000000000000011000 X
b10111111110000000000000000011000 c
b110000000000000000000 ##
b11000 f
b11000 >
b11000 P
b11000 _
b11000 k
b11000 p
b11000 ~
b11000 &#
b0 J"
b0 K"
b10111111110000000000000000011000 \
b10111111110000000000000000011000 [
b11000 M
b11000 %"
b11000 ""
b11000 z
b11000 {
b0 $"
b1 3"
b1 H
b1 V
b1 d
b1 d"
1b"
1a"
1`"
b1111 %
b1111 -
b1111 G
b1111 M"
b1111 ]"
1_"
b1000 J
b1000 W"
b1000 u"
b100011 0"
b1000 ."
b1001 -"
b0 /"
b0 ,"
b11000 2"
b11000 1"
b1000010010000000000011000 +"
b1000010010000000000011000 3
b1000010010000000000011000 D"
b1000010010000000000011000 l"
b11000 B
b11000 y"
b11000 C
b11000 ="
b11000 f"
b11000 F
b11000 U
b11000 a
b11000 t
b11000 #"
b11000 <"
b11000 Y"
b11000 e"
b11000 w"
b0 x
b0 5
b0 N
b0 y
b0 C"
b0 j"
b0 :
b0 L"
b0 }"
b0 5#
b0 %#
b0 .#
b1001 6
b1001 B"
b1001 ["
b1001 i"
b1001 !#
b1001 0#
b0 ;
b0 @"
b0 h"
b0 |"
b111111101010100101010101010101011 i
b111111111111111111111111111111000 h
b1111111111111111111111111111100111111010000000000000000000000000 j
b1000111111010000000000000000000000000 r
b1000 m
b111111111010101010101010101 n
b10111111110000000000000000000000 e
b10111111101111111111111111101000 ]
b10111111110000000000000000011000 b
b10111111110000000000000000000000 ?
b10111111110000000000000000000000 Q
b10111111110000000000000000000000 `
b10111111110000000000000000000000 l
b10111111110000000000000000000000 q
b10111111110000000000000000000000 !"
b10111111110000000000000000000000 m"
b10111111110000000000000000000000 '#
b10111111110000000000000000000000 -#
b1000 7
b1000 A"
b1000 ~"
b1000 /#
b100011 =
b100011 O
b100011 ^
b100011 o
b100011 }
b100011 &"
b100011 ?"
b100011 G"
b100011 Z"
b100011 g"
b100011 {"
b100011 6#
b100011 :#
b0 9"
b0 7"
b0 6"
b1000 ;"
b1000 :"
b1000 4"
b0 U"
b0 S"
b1000 O"
0T"
b10001101000010010000000000011000 >"
b10 4
b10 L
b10 g
b10 ("
b10 *"
b10 k"
b10 "#
b10 ;#
b1000 *
b1000 .
b1000 )"
b1000 F"
1(
#100
0(
#110
0+#
0v"
b0 *#
b0 1#
0,#
b0 )#
b0 2#
1$
b0 M
b0 %"
b10 )
b10000000000000000000 ##
b0 {
b0 z
b0 ""
b0 f
b0 >
b0 P
b0 _
b0 k
b0 p
b0 ~
b0 &#
b0 \
b0 [
b0 3"
b0 K
b0 Y
b0 s"
b1010 H
b1010 V
b1010 d
b1010 d"
b0 c"
b10111111110000000000000000001000 &
b10111111110000000000000000001000 I
b10111111110000000000000000001000 \"
b10111111110000000000000000001000 @
b10111111110000000000000000001000 X"
b1000 3
b1000 D"
b1000 l"
b1000 B
b1000 y"
b1000 C
b1000 ="
b1000 f"
b1000 F
b1000 U
b1000 a
b1000 t
b1000 #"
b1000 <"
b1000 Y"
b1000 e"
b1000 w"
b0 6
b0 B"
b0 ["
b0 i"
b0 !#
b0 0#
bx i
bx h
b0 j
b0 r
bx m
bx n
b0 e
b0 ]
b0 b
b0 ?
b0 Q
b0 `
b0 l
b0 q
b0 !"
b0 m"
b0 '#
b0 -#
b0 7
b0 A"
b0 ~"
b0 /#
b0 =
b0 O
b0 ^
b0 o
b0 }
b0 &"
b0 ?"
b0 G"
b0 Z"
b0 g"
b0 {"
b0 6#
b0 :#
b0 H"
b0 4
b0 L
b0 g
b0 ("
b0 *"
b0 k"
b0 "#
b0 ;#
b10111111110000000000000000001100 o"
b10111111110000000000000000010000 8
b10111111110000000000000000010000 n"
b10111111110000000000000000010000 t"
b10111111110000000000000000001000 <
b10111111110000000000000000001000 '"
b10111111110000000000000000001000 r"
b0 :
b0 L"
b0 }"
b0 5#
b0 %#
b0 .#
1(
#120
0(
#130
1v"
1+#
1,#
b0 *#
b0 1#
b0 M
b0 %"
b0 ""
b0 z
b0 {
bx i
bx h
b0 j
b0 r
bx m
bx n
b0 f
b0 >
b0 P
b0 _
b0 k
b0 p
b0 ~
b0 &#
b0 )#
b0 2#
b111 )
0$
b0 $"
b0 ##
b0 w
0|
b0 \
b0 [
b0 3"
b0 K
b0 Y
b0 s"
b1010 H
b1010 V
b1010 d
b1010 d"
b10111111110000000000000000000000 X
b10111111110000000000000000000000 c
1b"
1a"
1`"
b1111 %
b1111 -
b1111 G
b1111 M"
b1111 ]"
1_"
b0 c"
b0 J
b0 W"
b0 u"
b0 &
b0 I
b0 \"
b0 @
b0 X"
b0 3
b0 D"
b0 l"
b0 B
b0 y"
b0 C
b0 ="
b0 f"
b0 F
b0 U
b0 a
b0 t
b0 #"
b0 <"
b0 Y"
b0 e"
b0 w"
b0 6
b0 B"
b0 ["
b0 i"
b0 !#
b0 0#
b0 e
b0 ]
b0 b
b0 ?
b0 Q
b0 `
b0 l
b0 q
b0 !"
b0 m"
b0 '#
b0 -#
b0 7
b0 A"
b0 ~"
b0 /#
b0 =
b0 O
b0 ^
b0 o
b0 }
b0 &"
b0 ?"
b0 G"
b0 Z"
b0 g"
b0 {"
b0 6#
b0 :#
b0 9"
b0 7"
b0 6"
b0 ;"
b0 :"
b0 4"
b0 U"
b0 S"
b0 O"
0T"
b1 4
b1 L
b1 g
b1 ("
b1 *"
b1 k"
b1 "#
b1 ;#
b0 *
b0 .
b0 )"
b0 F"
1(
#140
0(
#150
0v"
0,#
1$
b11 )
b10111111110000000000000000001100 &
b10111111110000000000000000001100 I
b10111111110000000000000000001100 \"
b10111111110000000000000000001100 @
b10111111110000000000000000001100 X"
b0 0"
b0 ."
b0 -"
b0 2"
b0 1"
b0 +"
b0 4
b0 L
b0 g
b0 ("
b0 *"
b0 k"
b0 "#
b0 ;#
b10111111110000000000000000010000 o"
b10111111110000000000000000010100 8
b10111111110000000000000000010100 n"
b10111111110000000000000000010100 t"
b10111111110000000000000000001100 <
b10111111110000000000000000001100 '"
b10111111110000000000000000001100 r"
b0 >"
1(
#160
0(
#170
1+#
1v"
1,#
0$
b0 ##
b0 &
b0 I
b0 \"
b0 @
b0 X"
b0 3
b0 D"
b0 l"
b0 B
b0 y"
b0 C
b0 ="
b0 f"
b0 F
b0 U
b0 a
b0 t
b0 #"
b0 <"
b0 Y"
b0 e"
b0 w"
b0 ;"
b0 :"
b0 4"
b0 O"
b1 4
b1 L
b1 g
b1 ("
b1 *"
b1 k"
b1 "#
b1 ;#
b0 *
b0 .
b0 )"
b0 F"
1(
#180
0(
#190
0v"
0,#
1$
b100 )
b10111111110000000000000000010000 &
b10111111110000000000000000010000 I
b10111111110000000000000000010000 \"
b10111111110000000000000000010000 @
b10111111110000000000000000010000 X"
b0 4
b0 L
b0 g
b0 ("
b0 *"
b0 k"
b0 "#
b0 ;#
b10111111110000000000000000010100 o"
b10111111110000000000000000011000 8
b10111111110000000000000000011000 n"
b10111111110000000000000000011000 t"
b10111111110000000000000000010000 <
b10111111110000000000000000010000 '"
b10111111110000000000000000010000 r"
1(
#200
0(
#210
1v"
1,#
b0 )#
b0 2#
0$
b0 $"
b0 ##
b0 w
0|
0W
b0 \
b0 [
b1010 H
b1010 V
b1010 d
b1010 d"
b0 X
b0 c
b0 &
b0 I
b0 \"
b0 @
b0 X"
b0 3
b0 D"
b0 l"
b0 B
b0 y"
b0 C
b0 ="
b0 f"
b0 F
b0 U
b0 a
b0 t
b0 #"
b0 <"
b0 Y"
b0 e"
b0 w"
b0 6
b0 B"
b0 ["
b0 i"
b0 !#
b0 0#
b0 ;
b0 @"
b0 h"
b0 |"
b0 e
b0 ]
b0 b
b0 ?
b0 Q
b0 `
b0 l
b0 q
b0 !"
b0 m"
b0 '#
b0 -#
b0 7
b0 A"
b0 ~"
b0 /#
b0 7"
b0 6"
b0 8"
b0 ;"
b0 :"
b0 4"
b0 U"
b0 S"
b0 Q"
b0 O"
b1 4
b1 L
b1 g
b1 ("
b1 *"
b1 k"
b1 "#
b1 ;#
b0 *
b0 .
b0 )"
b0 F"
1(
#220
0(
#230
0v"
0,#
1$
b101 )
b10111111110000000000000000010100 &
b10111111110000000000000000010100 I
b10111111110000000000000000010100 \"
b10111111110000000000000000010100 @
b10111111110000000000000000010100 X"
b0 4
b0 L
b0 g
b0 ("
b0 *"
b0 k"
b0 "#
b0 ;#
b10111111110000000000000000011000 o"
b10111111110000000000000000011100 8
b10111111110000000000000000011100 n"
b10111111110000000000000000011100 t"
b10111111110000000000000000010100 <
b10111111110000000000000000010100 '"
b10111111110000000000000000010100 r"
1(
#240
0(
